<?xml version="1.0" encoding="UTF-8"?>
<svg xmlns="http://www.w3.org/2000/svg" xmlns:xlink="http://www.w3.org/1999/xlink" viewBox="0 0 239.99 67.2">
  <defs>
    <style>
      .cls-1 {
        fill: #878e98;
      }

      .cls-2 {
        fill: #fff;
      }

      .cls-3 {
        fill: #b2b2b2;
      }

      .cls-4 {
        isolation: isolate;
      }

      .cls-5 {
        fill: #afcc80;
      }

      .cls-6 {
        fill: #b28e77;
      }

      .cls-7 {
        fill: #020202;
      }

      .cls-8 {
        fill: #bdc1c9;
      }

      .cls-9 {
        filter: url(#drop-shadow-1);
      }

      .cls-10 {
        fill: none;
        stroke: #00a7de;
        stroke-miterlimit: 10;
      }

      .cls-11 {
        fill: #00a7de;
      }

      .cls-12 {
        mix-blend-mode: multiply;
        opacity: .5;
      }

      .cls-13 {
        filter: url(#drop-shadow-2);
      }

      .cls-14 {
        fill: #04808f;
      }

      .cls-15 {
        fill: #c3a180;
      }

      .cls-16 {
        fill: #aecb80;
      }

      .cls-17 {
        fill: #b0cc80;
      }

      .cls-18 {
        fill: #83c5e2;
      }

      .cls-19 {
        fill: #010101;
      }
    </style>
    <filter id="drop-shadow-1" filterUnits="userSpaceOnUse">
      <feOffset dx="1" dy="1"/>
      <feGaussianBlur result="blur" stdDeviation="0"/>
      <feFlood flood-color="#000" flood-opacity=".75"/>
      <feComposite in2="blur" operator="in"/>
      <feComposite in="SourceGraphic"/>
    </filter>
    <filter id="drop-shadow-2" filterUnits="userSpaceOnUse">
      <feOffset dx="4" dy="8"/>
      <feGaussianBlur result="blur-2" stdDeviation="5"/>
      <feFlood flood-color="#000" flood-opacity=".3"/>
      <feComposite in2="blur-2" operator="in"/>
      <feComposite in="SourceGraphic"/>
    </filter>
  </defs>
  <g class="cls-4">
    <g id="botones">
      <g class="cls-9">
        <path class="cls-11" d="M64.58,17.49h2.59c1.67,0,2.91,.21,3.72,.62,.81,.41,1.48,1.09,2.01,2.02,.53,.93,.79,2.02,.79,3.27,0,.89-.15,1.7-.44,2.44-.29,.74-.7,1.36-1.22,1.85-.52,.49-1.08,.83-1.68,1.02s-1.65,.28-3.14,.28h-2.63v-11.49Zm2.17,2.11v7.25h1.02c1,0,1.73-.11,2.18-.34,.45-.23,.82-.62,1.11-1.16,.29-.54,.43-1.21,.43-2,0-1.22-.34-2.17-1.02-2.84-.61-.6-1.6-.91-2.96-.91h-.74Z"/>
        <path class="cls-11" d="M84.05,25.35h-6.85c.1,.6,.36,1.08,.79,1.44,.43,.36,.98,.54,1.64,.54,.8,0,1.48-.28,2.05-.84l1.8,.84c-.45,.64-.98,1.11-1.61,1.41s-1.37,.46-2.23,.46c-1.33,0-2.42-.42-3.26-1.26-.84-.84-1.26-1.89-1.26-3.16s.42-2.37,1.25-3.23c.84-.86,1.88-1.29,3.14-1.29,1.34,0,2.43,.43,3.27,1.29,.84,.86,1.26,1.99,1.26,3.39v.41Zm-2.14-1.68c-.14-.47-.42-.86-.83-1.16s-.9-.45-1.44-.45c-.59,0-1.12,.17-1.56,.5-.28,.21-.54,.58-.78,1.1h4.62Z"/>
        <path class="cls-11" d="M85.77,20.49h2.13v.98c.36-.4,.77-.7,1.22-.9,.45-.2,.93-.3,1.46-.3s1.01,.13,1.44,.39c.43,.26,.77,.64,1.03,1.14,.34-.5,.75-.88,1.25-1.14,.49-.26,1.03-.39,1.61-.39s1.14,.14,1.59,.42c.46,.28,.79,.65,.99,1.1,.2,.45,.3,1.19,.3,2.21v4.98h-2.15v-4.31c0-.96-.12-1.62-.36-1.96-.24-.34-.6-.51-1.08-.51-.36,0-.69,.1-.98,.31-.29,.21-.5,.5-.64,.86s-.21,.96-.21,1.77v3.84h-2.15v-4.12c0-.76-.06-1.31-.17-1.65-.11-.34-.28-.59-.5-.76-.22-.17-.5-.25-.81-.25-.35,0-.68,.11-.97,.32s-.51,.51-.65,.89c-.14,.38-.22,.98-.22,1.8v3.78h-2.13v-8.5Z"/>
        <path class="cls-11" d="M107.09,20.49h2.13v8.5h-2.13v-.9c-.42,.4-.83,.68-1.25,.86-.42,.17-.87,.26-1.36,.26-1.1,0-2.05-.43-2.85-1.28s-1.2-1.91-1.2-3.18,.39-2.39,1.16-3.23c.78-.84,1.72-1.26,2.82-1.26,.51,0,.99,.1,1.44,.29,.45,.19,.86,.48,1.24,.87v-.94Zm-2.24,1.75c-.66,0-1.21,.23-1.64,.7-.44,.47-.65,1.06-.65,1.79s.22,1.34,.67,1.81c.44,.47,.99,.71,1.64,.71s1.23-.23,1.67-.7c.44-.47,.66-1.08,.66-1.83s-.22-1.34-.66-1.8c-.44-.46-1-.69-1.67-.69Z"/>
        <path class="cls-11" d="M111.38,20.49h2.13v.87c.48-.41,.92-.69,1.31-.85,.39-.16,.79-.24,1.21-.24,.84,0,1.56,.29,2.15,.88,.49,.5,.74,1.24,.74,2.22v5.62h-2.11v-3.72c0-1.01-.05-1.69-.14-2.02-.09-.33-.25-.59-.48-.76-.23-.17-.51-.26-.84-.26-.43,0-.8,.14-1.11,.43-.31,.29-.52,.69-.64,1.2-.06,.27-.09,.84-.09,1.72v3.41h-2.13v-8.5Z"/>
        <path class="cls-11" d="M127.26,17.2h2.13v11.78h-2.13v-.9c-.42,.4-.83,.68-1.25,.86-.42,.17-.87,.26-1.36,.26-1.1,0-2.05-.43-2.85-1.28s-1.2-1.91-1.2-3.18,.39-2.39,1.16-3.23c.78-.84,1.72-1.26,2.82-1.26,.51,0,.99,.1,1.44,.29,.45,.19,.86,.48,1.24,.87v-4.22Zm-2.24,5.03c-.66,0-1.21,.23-1.64,.7-.44,.47-.65,1.06-.65,1.79s.22,1.34,.67,1.81c.44,.47,.99,.71,1.64,.71s1.23-.23,1.67-.7c.44-.47,.66-1.08,.66-1.83s-.22-1.34-.66-1.8c-.44-.46-1-.69-1.67-.69Z"/>
        <path class="cls-11" d="M137.82,20.49h2.13v8.5h-2.13v-.9c-.42,.4-.83,.68-1.25,.86-.42,.17-.87,.26-1.36,.26-1.1,0-2.05-.43-2.85-1.28s-1.2-1.91-1.2-3.18,.39-2.39,1.16-3.23c.78-.84,1.72-1.26,2.82-1.26,.51,0,.99,.1,1.44,.29,.45,.19,.86,.48,1.24,.87v-.94Zm-2.24,1.75c-.66,0-1.21,.23-1.64,.7-.44,.47-.65,1.06-.65,1.79s.22,1.34,.67,1.81c.44,.47,.99,.71,1.64,.71s1.23-.23,1.67-.7c.44-.47,.66-1.08,.66-1.83s-.22-1.34-.66-1.8c-.44-.46-1-.69-1.67-.69Z"/>
        <path class="cls-11" d="M152.86,17.2h2.13v11.78h-2.13v-.9c-.42,.4-.83,.68-1.25,.86-.42,.17-.87,.26-1.36,.26-1.1,0-2.05-.43-2.85-1.28s-1.2-1.91-1.2-3.18,.39-2.39,1.16-3.23c.78-.84,1.72-1.26,2.82-1.26,.51,0,.99,.1,1.44,.29,.45,.19,.86,.48,1.24,.87v-4.22Zm-2.24,5.03c-.66,0-1.21,.23-1.64,.7-.44,.47-.65,1.06-.65,1.79s.22,1.34,.67,1.81c.44,.47,.99,.71,1.64,.71s1.23-.23,1.67-.7c.44-.47,.66-1.08,.66-1.83s-.22-1.34-.66-1.8c-.44-.46-1-.69-1.67-.69Z"/>
        <path class="cls-11" d="M165.66,25.35h-6.85c.1,.6,.36,1.08,.79,1.44,.43,.36,.98,.54,1.64,.54,.8,0,1.48-.28,2.05-.84l1.8,.84c-.45,.64-.98,1.11-1.61,1.41s-1.37,.46-2.23,.46c-1.33,0-2.42-.42-3.26-1.26-.84-.84-1.26-1.89-1.26-3.16s.42-2.37,1.25-3.23c.84-.86,1.88-1.29,3.14-1.29,1.34,0,2.43,.43,3.27,1.29,.84,.86,1.26,1.99,1.26,3.39v.41Zm-2.14-1.68c-.14-.47-.42-.86-.83-1.16s-.9-.45-1.44-.45c-.59,0-1.12,.17-1.56,.5-.28,.21-.54,.58-.78,1.1h4.62Z"/>
        <path class="cls-11" d="M172.25,17.49h2.32c1.27,0,2.17,.11,2.71,.34s.97,.6,1.3,1.13c.33,.53,.49,1.15,.49,1.87,0,.76-.18,1.39-.54,1.89s-.91,.89-1.64,1.15l2.72,5.11h-2.39l-2.58-4.87h-.2v4.87h-2.19v-11.49Zm2.19,4.49h.69c.7,0,1.17-.09,1.44-.27,.26-.18,.39-.49,.39-.91,0-.25-.06-.47-.19-.65s-.3-.32-.52-.4c-.22-.08-.62-.12-1.2-.12h-.6v2.36Z"/>
        <path class="cls-11" d="M189.66,25.35h-6.85c.1,.6,.36,1.08,.79,1.44,.43,.36,.98,.54,1.64,.54,.8,0,1.48-.28,2.05-.84l1.8,.84c-.45,.64-.98,1.11-1.61,1.41s-1.37,.46-2.23,.46c-1.33,0-2.42-.42-3.26-1.26-.84-.84-1.26-1.89-1.26-3.16s.42-2.37,1.25-3.23c.84-.86,1.88-1.29,3.14-1.29,1.34,0,2.43,.43,3.27,1.29,.84,.86,1.26,1.99,1.26,3.39v.41Zm-2.14-1.68c-.14-.47-.42-.86-.83-1.16s-.9-.45-1.44-.45c-.59,0-1.12,.17-1.56,.5-.28,.21-.54,.58-.78,1.1h4.62Z"/>
        <path class="cls-11" d="M199.71,22.2l-1.78,.98c-.33-.35-.66-.59-.99-.73-.33-.14-.71-.2-1.15-.2-.8,0-1.44,.24-1.94,.71-.49,.48-.74,1.09-.74,1.83s.24,1.31,.71,1.77c.47,.46,1.1,.69,1.87,.69,.95,0,1.7-.33,2.23-.98l1.68,1.15c-.91,1.19-2.2,1.78-3.86,1.78-1.5,0-2.67-.44-3.51-1.33-.85-.89-1.27-1.92-1.27-3.11,0-.82,.21-1.58,.62-2.27,.41-.69,.99-1.24,1.72-1.63,.74-.4,1.56-.59,2.47-.59,.84,0,1.6,.17,2.27,.5s1.22,.81,1.65,1.43Z"/>
        <path class="cls-11" d="M201.62,20.49h2.16v4.09c0,.8,.05,1.35,.16,1.66,.11,.31,.29,.55,.53,.72,.24,.17,.54,.26,.9,.26s.66-.08,.9-.25c.25-.17,.43-.42,.55-.75,.09-.24,.13-.77,.13-1.57v-4.16h2.13v3.6c0,1.48-.12,2.5-.35,3.05-.29,.67-.71,1.18-1.27,1.54-.56,.36-1.27,.54-2.12,.54-.93,0-1.69-.21-2.26-.62-.58-.42-.98-1-1.21-1.74-.17-.52-.25-1.45-.25-2.81v-3.54Z"/>
        <path class="cls-11" d="M210.73,20.49h1.83v1.07c.2-.42,.46-.74,.79-.96s.69-.33,1.08-.33c.28,0,.56,.07,.87,.22l-.66,1.84c-.25-.12-.46-.19-.62-.19-.33,0-.61,.2-.83,.61s-.34,1.2-.34,2.39v.41s0,3.44,0,3.44h-2.12v-8.5Z"/>
        <path class="cls-11" d="M221.55,21.67l-1.32,1.32c-.54-.53-1.02-.8-1.46-.8-.24,0-.43,.05-.56,.15-.14,.1-.2,.23-.2,.38,0,.11,.04,.22,.13,.32,.09,.1,.3,.23,.64,.39l.78,.39c.82,.41,1.39,.82,1.7,1.24,.31,.42,.46,.92,.46,1.48,0,.76-.28,1.39-.83,1.89-.55,.51-1.3,.76-2.23,.76-1.24,0-2.23-.48-2.97-1.45l1.31-1.43c.25,.29,.54,.53,.88,.71s.63,.27,.89,.27c.28,0,.51-.07,.68-.2,.17-.14,.26-.29,.26-.47,0-.33-.31-.65-.93-.96l-.72-.36c-1.38-.69-2.06-1.56-2.06-2.6,0-.67,.26-1.25,.78-1.72,.52-.48,1.18-.71,1.99-.71,.55,0,1.07,.12,1.56,.36,.49,.24,.9,.59,1.24,1.04Z"/>
        <path class="cls-11" d="M227.38,20.27c.8,0,1.56,.2,2.26,.6,.71,.4,1.26,.95,1.65,1.63,.4,.69,.59,1.43,.59,2.23s-.2,1.55-.6,2.25c-.4,.7-.94,1.24-1.63,1.64s-1.45,.59-2.27,.59c-1.22,0-2.26-.43-3.12-1.3-.86-.87-1.29-1.92-1.29-3.16,0-1.33,.49-2.43,1.46-3.32,.85-.77,1.84-1.16,2.95-1.16Zm.04,2.01c-.66,0-1.21,.23-1.66,.69s-.66,1.05-.66,1.77,.22,1.34,.65,1.8c.44,.46,.99,.69,1.66,.69s1.22-.23,1.67-.7c.44-.46,.67-1.06,.67-1.79s-.22-1.32-.65-1.78c-.44-.46-.99-.68-1.67-.68Z"/>
        <path class="cls-11" d="M238.84,21.67l-1.32,1.32c-.54-.53-1.02-.8-1.46-.8-.24,0-.43,.05-.56,.15-.14,.1-.2,.23-.2,.38,0,.11,.04,.22,.13,.32,.09,.1,.3,.23,.64,.39l.78,.39c.82,.41,1.39,.82,1.7,1.24,.31,.42,.46,.92,.46,1.48,0,.76-.28,1.39-.83,1.89-.55,.51-1.3,.76-2.23,.76-1.24,0-2.23-.48-2.97-1.45l1.31-1.43c.25,.29,.54,.53,.88,.71s.63,.27,.89,.27c.28,0,.51-.07,.68-.2,.17-.14,.26-.29,.26-.47,0-.33-.31-.65-.93-.96l-.72-.36c-1.38-.69-2.06-1.56-2.06-2.6,0-.67,.26-1.25,.78-1.72,.52-.48,1.18-.71,1.99-.71,.55,0,1.07,.12,1.56,.36,.49,.24,.9,.59,1.24,1.04Z"/>
      </g>
      <g>
        <g class="cls-13">
          <ellipse class="cls-14" cx="29" cy="25.61" rx="17.83" ry="18.41"/>
          <circle class="cls-11" cx="29" cy="24.68" r="17.38" transform="translate(-8.96 27.74) rotate(-45)"/>
          <g class="cls-12">
            <circle class="cls-3" cx="29" cy="25.69" r="13.48"/>
          </g>
          <circle class="cls-2" cx="29" cy="24.68" r="15.89"/>
          <circle class="cls-10" cx="29" cy="24.68" r="13.98"/>
        </g>
        <g>
          <path class="cls-7" d="M39.12,21c-.3,.89-.58,1.77-.88,2.64-.08,.22-.08,.35,.14,.52,.65,.5,.8,1.41,.4,2.11-.03,.06-.07,.12-.12,.2h1.1c-.98,5.11-5.26,8.72-10.28,8.87-5.46,.16-9.97-3.48-11.07-8.87,.08,0,.15,0,.22,0,.92,0,1.84,0,2.75,0,.15,0,.19-.03,.19-.19-.01-.34-.01-.68,0-1.02,0-.13-.03-.16-.16-.16-.84,0-1.68,0-2.52,0h-.23c.28-.65,.56-1.28,.83-1.91,.59-1.36,1.19-2.71,1.78-4.08,.06-.13,.12-.18,.27-.17,.26,.01,.53,0,.79,0,.1,0,.16,.02,.21,.13,.86,1.98,1.73,3.97,2.6,5.95,0,.02,.01,.04,.02,.08h-1.43c-.43,0-.87,0-1.3,0-.12,0-.18,.01-.17,.16,.01,.36,.01,.71,0,1.07,0,.13,.04,.15,.16,.15,1.06,0,2.12,0,3.18,0,.14,0,.18-.06,.21-.17,.36-1.19,.55-2.4,.55-3.63,0-.95,0-1.91,0-2.86,0-.11-.01-.16-.15-.19-.33-.07-.53-.33-.54-.67,0-.23,0-.46,0-.68,.01-.37,.29-.67,.67-.67,1.6,0,3.2,0,4.8,0,.38,0,.67,.3,.68,.68,0,.22,0,.44,0,.66,0,.35-.2,.61-.55,.69-.12,.03-.14,.08-.13,.18,0,.33,.01,.67,0,1,0,.17,.05,.21,.21,.21,2.51,0,5.02,0,7.54,0h.25Zm-15.07,12.3c3.33,2.04,8.05,1.76,11.11-.68-.09,0-.16,0-.22,0-1.16,0-2.32,0-3.48,0-.57,0-1.01-.47-1.01-1.03,0-.55,.44-1,1-1.01,.13,0,.26,0,.38,0,.19-.02,.32-.16,.32-.34,0-.18-.13-.32-.32-.34-.06,0-.11,0-.17,0-.64,0-1.28,0-1.92,0-.77-.02-1.25-.83-.88-1.5,.21-.39,.55-.55,.99-.55,2.8,0,5.59,0,8.39,0q.44,0,.57-.43,.07-.25-.2-.25c-6.36,0-12.73,0-19.09,0h-.25c.09,.4,.24,.76,.37,1.13,.07,.19,.17,.25,.37,.24,2.11,0,4.21,0,6.32,0,.59,0,1.04,.45,1.04,1.02,0,.57-.45,1.01-1.04,1.02-.19,0-.38,0-.58,0-.48,0-.95,0-1.43,0-.22,0-.36,.14-.37,.33,0,.2,.14,.34,.37,.35,.06,0,.11,0,.17,0,1.39,0,2.79,0,4.18,0,.45,0,.79,.19,.98,.6,.33,.68-.17,1.45-.94,1.45-1.48,0-2.96,0-4.44,0-.07,0-.14,0-.23,0Zm5.92-12.3c.1,0,.18-.01,.26,0,.18,.03,.23-.05,.22-.22-.01-.32-.01-.64,0-.96,0-.14-.03-.19-.18-.19-1.02,0-2.04,0-3.05,0-.15,0-.19,.04-.19,.19,0,.85,0,1.69,0,2.54,.01,1.33-.15,2.64-.52,3.92-.05,.18,0,.19,.15,.19,1.2,0,2.41,0,3.61,0,.05,0,.11,.03,.15-.03-.52-.9-.38-1.81,.38-2.35,.14-.1,.15-.18,.09-.33-.31-.91-.61-1.82-.92-2.76Zm8.43,7.52c-.08,0-.12,0-.16,0-2.79,0-5.59,0-8.38,0-.06,0-.12,0-.17,0-.23,.05-.34,.3-.22,.5,.08,.14,.21,.17,.36,.17,.67,0,1.34,0,2.01,0,.52,0,.94,.41,.99,.91,.05,.52-.28,.98-.8,1.11-.16,.04-.33,.02-.49,.03-.27,0-.42,.13-.42,.35,0,.21,.15,.33,.41,.33,1.44,0,2.89,0,4.33,0,.11,0,.18-.04,.26-.11,.31-.3,.6-.62,.87-.96,.56-.71,1.03-1.48,1.4-2.34Zm-7.48-6.83c.22,.66,.44,1.32,.65,1.97,.03,.08,.07,.09,.14,.08,.84-.05,1.54,.53,1.73,1.24,.02,.09,.05,.13,.15,.13,.63,0,1.25,0,1.88,0,.08,0,.13-.02,.15-.1,.18-.73,.91-1.31,1.74-1.26,.07,0,.12,0,.14-.08,.21-.65,.43-1.3,.65-1.97h-7.25Zm-10.82,7.51s.02,.07,.03,.1c.68,1.28,1.6,2.37,2.74,3.25,.06,.05,.12,.07,.19,.07,1.88,0,3.76,0,5.64,0,.23,0,.38-.14,.38-.35,0-.2-.15-.33-.39-.34-.21,0-.43,0-.64,0-1.25,0-2.5,0-3.76,0-.53,0-.96-.4-1.02-.91-.06-.52,.29-1,.82-1.11,.1-.02,.21-.02,.32-.02,.63,0,1.27,0,1.9,0,.23,0,.38-.14,.38-.35,0-.19-.15-.33-.37-.34-.03,0-.06,0-.09,0-1.98,0-3.96,0-5.93,0h-.2Zm3.98-4.78s0-.06,0-.07c-.67-1.54-1.34-3.07-2.01-4.61-.03-.07-.07-.11-.16-.11-.09,0-.14,.03-.18,.11-.22,.51-.44,1.02-.66,1.52-.43,.99-.86,1.98-1.3,2.97-.06,.14-.06,.19,.12,.19,.5-.01,1.01,0,1.52,0,.07,0,.16,.04,.16-.1,0-.26,.03-.51-.23-.68-.13-.08-.22-.22-.34-.33q-.37-.37,.01-.73s.02-.02,.03-.03c.06-.08,.11-.07,.17,0,.1,.11,.21,.22,.31,.33,0-.33,.12-.63-.03-.92-.24-.49-.24-.48,.26-.71,.11-.05,.14-.01,.19,.07,.23,.38,.37,.78,.31,1.23-.01,.1,0,.21,0,.34,.05-.04,.07-.06,.09-.08,.39-.36,.38-.36,.75,.04,.07,.07,.07,.12,0,.19-.2,.19-.38,.41-.59,.58-.24,.18-.26,.41-.24,.68,0,.1,.04,.12,.13,.12,.57,0,1.14,0,1.71,0Zm7.71,2.05c.56,0,1.03-.44,1.04-1,.01-.57-.44-1.05-1.01-1.05-.56,0-1.03,.44-1.04,1-.01,.57,.44,1.05,1.01,1.05Zm6.51-1.03c0-.56-.46-1.02-1.02-1.02-.57,0-1.03,.46-1.03,1.03,0,.56,.46,1.02,1.02,1.02,.57,0,1.03-.46,1.03-1.03Zm-9.55-7.17h-1.92c-.49,0-.48,0-.49,.48,0,.18,.05,.21,.21,.21,1.36,0,2.72,0,4.08,0,.51,0,.5,0,.5-.51,0-.14-.05-.17-.18-.17-.73,0-1.47,0-2.2,0Zm4.43,8.18h2.72c-.12-.18-.22-.36-.27-.55-.02-.09-.06-.12-.16-.12-.62,0-1.25,0-1.87,0-.08,0-.13,.02-.15,.1-.05,.2-.15,.38-.27,.56Z"/>
          <path class="cls-19" d="M26.08,14.17c.49,0,.98,0,1.47,0,.13,0,.18,.03,.16,.16-.02,.17,.07,.39-.03,.49-.1,.1-.32,.03-.49,.03-.82,0-1.64,0-2.45,0-.28,0-.44,.13-.44,.35,0,.21,.16,.33,.43,.33,.85,0,1.71,0,2.56,0,.73,0,1.2,.55,1.11,1.27,0,.08-.03,.1-.1,.09-.06,0-.13,0-.19,0-.12,0-.27,.04-.35-.02-.1-.06-.02-.22-.04-.34-.03-.22-.16-.33-.42-.33-.88,0-1.76,0-2.65,0-.56,0-1-.43-1.03-.96-.03-.59,.42-1.08,1.01-1.09,.48,0,.97,0,1.45,0Z"/>
          <path class="cls-7" d="M30.82,16.22c-.22,0-.44,0-.66,0-.28,0-.4,.13-.4,.41q0,.27-.28,.27-.45,0-.4-.45c.05-.5,.48-.9,.99-.91,.44,0,.88,0,1.32,0,.26,0,.42-.14,.41-.35,0-.21-.16-.33-.41-.33-.28,0-.55,0-.83,0-.09,0-.14-.02-.12-.12,0,0,0-.01,0-.02q-.02-.55,.52-.55c.18,0,.36,0,.53,0,.55,.02,.99,.47,1,1.02,0,.55-.44,1.01-.99,1.03-.23,0-.46,0-.68,0h0Z"/>
          <path d="M28.72,14.85q-.32,0-.32-.32t.36-.36,.32,.32-.36,.36Z"/>
          <path class="cls-18" d="M24.05,33.3c.09,0,.16,0,.23,0,1.48,0,2.96,0,4.44,0,.77,0,1.27-.78,.94-1.45-.19-.4-.53-.6-.98-.6-1.39,0-2.79,0-4.18,0-.06,0-.11,0-.17,0-.23,0-.38-.15-.37-.35,0-.19,.15-.33,.37-.33,.48,0,.95,0,1.43,0,.19,0,.38,0,.58,0,.59-.01,1.04-.46,1.04-1.02,0-.57-.45-1.02-1.04-1.02-2.11,0-4.21,0-6.32,0-.2,0-.3-.05-.37-.24-.13-.37-.27-.73-.37-1.13h.25c6.36,0,12.73,0,19.09,0q.27,0,.2,.25-.13,.43-.57,.43c-2.8,0-5.59,0-8.39,0-.44,0-.78,.16-.99,.55-.37,.67,.11,1.49,.88,1.5,.64,.01,1.28,0,1.92,0,.06,0,.11,0,.17,0,.19,.02,.32,.16,.32,.34,0,.18-.13,.32-.32,.34-.13,.01-.26,0-.38,0-.56,.02-1,.46-1,1.01,0,.56,.44,1.03,1.01,1.03,1.16,0,2.32,0,3.48,0,.07,0,.14,0,.22,0-3.06,2.45-7.78,2.72-11.11,.68Z"/>
          <path class="cls-15" d="M29.97,21c.31,.94,.61,1.85,.92,2.76,.05,.15,.04,.23-.09,.33-.75,.55-.89,1.45-.38,2.35-.04,.06-.1,.03-.15,.03-1.2,0-2.41,0-3.61,0-.16,0-.21-.01-.15-.19,.37-1.28,.54-2.59,.52-3.92,0-.85,0-1.69,0-2.54,0-.15,.04-.19,.19-.19,1.02,0,2.04,0,3.05,0,.16,0,.19,.05,.18,.19-.01,.32-.01,.64,0,.96,0,.17-.03,.25-.22,.22-.08-.01-.16,0-.26,0Z"/>
          <path class="cls-17" d="M38.41,28.52c-.37,.87-.84,1.63-1.4,2.34-.27,.34-.56,.66-.87,.96-.07,.07-.15,.11-.26,.11-1.44,0-2.89,0-4.33,0-.26,0-.41-.13-.41-.33,0-.22,.15-.34,.42-.35,.16,0,.33,.01,.49-.03,.51-.12,.85-.59,.8-1.11-.05-.5-.48-.9-.99-.91-.67-.01-1.34,0-2.01,0-.15,0-.28-.03-.36-.17-.12-.2,0-.45,.22-.5,.05-.01,.11,0,.17,0,2.79,0,5.59,0,8.38,0,.04,0,.08,0,.16,0Z"/>
          <path class="cls-8" d="M30.92,21.69h7.25c-.22,.66-.44,1.31-.65,1.97-.03,.08-.07,.09-.14,.08-.83-.06-1.56,.53-1.74,1.26-.02,.09-.07,.11-.15,.1-.63,0-1.25,0-1.88,0-.1,0-.13-.04-.15-.13-.19-.71-.9-1.29-1.73-1.24-.07,0-.12,0-.14-.08-.21-.65-.43-1.3-.65-1.97Z"/>
          <path class="cls-5" d="M20.1,29.2h.2c1.98,0,3.96,0,5.93,0,.03,0,.06,0,.09,0,.22,.01,.36,.14,.37,.34,0,.2-.14,.34-.38,.35-.63,0-1.27,0-1.9,0-.11,0-.21,0-.32,.02-.52,.11-.87,.59-.82,1.11,.05,.51,.49,.91,1.02,.91,1.25,0,2.5,0,3.76,0,.21,0,.43,0,.64,0,.24,0,.38,.13,.39,.34,0,.2-.14,.35-.38,.35-1.88,0-3.76,0-5.64,0-.07,0-.13-.02-.19-.07-1.15-.89-2.06-1.97-2.74-3.25-.01-.02-.02-.05-.03-.1Z"/>
          <path class="cls-16" d="M24.08,24.42c-.57,0-1.14,0-1.71,0-.09,0-.12-.02-.13-.12-.02-.26,0-.49,.24-.68,.22-.17,.39-.39,.59-.58,.07-.07,.07-.11,0-.19-.36-.4-.36-.4-.75-.04-.02,.02-.04,.03-.09,.08,0-.14-.01-.24,0-.34,.06-.45-.08-.85-.31-1.23-.05-.09-.08-.12-.19-.07-.5,.23-.5,.23-.26,.71,.15,.29,.03,.6,.03,.92-.1-.11-.21-.22-.31-.33-.06-.07-.11-.08-.17,0,0,.01-.02,.02-.03,.03q-.38,.36-.01,.73c.11,.11,.21,.24,.34,.33,.26,.17,.23,.43,.23,.68,0,.14-.09,.1-.16,.1-.51,0-1.01,0-1.52,0-.18,0-.18-.05-.12-.19,.44-.99,.87-1.98,1.3-2.97,.22-.51,.45-1.01,.66-1.52,.04-.09,.09-.11,.18-.11,.08,0,.13,.03,.16,.11,.67,1.54,1.34,3.07,2.01,4.61,0,.01,0,.03,0,.07Z"/>
          <path class="cls-1" d="M31.79,26.47c-.57,0-1.02-.48-1.01-1.05,.01-.56,.48-1,1.04-1,.57,0,1.02,.48,1.01,1.05-.01,.56-.48,1-1.04,1Z"/>
          <path class="cls-1" d="M38.3,25.44c0,.57-.46,1.03-1.03,1.03-.56,0-1.02-.46-1.02-1.02,0-.57,.46-1.03,1.03-1.03,.56,0,1.02,.46,1.02,1.02Z"/>
          <path class="cls-6" d="M28.75,18.27c.73,0,1.47,0,2.2,0,.13,0,.18,.03,.18,.17,0,.51,0,.51-.5,.51-1.36,0-2.72,0-4.08,0-.16,0-.22-.03-.21-.21,.01-.48,0-.48,.49-.48,.64,0,1.28,0,1.92,0Z"/>
        </g>
      </g>
    </g>
  </g>
</svg>