<?xml version="1.0" encoding="UTF-8"?>
<svg xmlns="http://www.w3.org/2000/svg" xmlns:xlink="http://www.w3.org/1999/xlink" viewBox="0 0 272.29 67.2">
  <defs>
    <style>
      .cls-1 {
        fill: #fff;
      }

      .cls-2 {
        fill: #034363;
      }

      .cls-3 {
        fill: #030404;
      }

      .cls-4 {
        fill: #0c0c0c;
      }

      .cls-5 {
        fill: #050605;
      }

      .cls-6 {
        fill: #040404;
      }

      .cls-7 {
        fill: #b2b2b2;
      }

      .cls-8 {
        isolation: isolate;
      }

      .cls-9 {
        fill: #589050;
      }

      .cls-10 {
        opacity: .41;
      }

      .cls-10, .cls-11 {
        fill: #d8e9f0;
      }

      .cls-12 {
        fill: #020202;
      }

      .cls-13 {
        fill: #588f50;
      }

      .cls-14 {
        fill: #0e0e0f;
      }

      .cls-15 {
        fill: #dee5eb;
      }

      .cls-16 {
        filter: url(#drop-shadow-1);
      }

      .cls-17 {
        fill: #030303;
      }

      .cls-18 {
        fill: #040303;
      }

      .cls-19 {
        fill: #bac4ce;
      }

      .cls-20 {
        fill: #756c77;
      }

      .cls-21 {
        mix-blend-mode: multiply;
        opacity: .5;
      }

      .cls-22 {
        filter: url(#drop-shadow-2);
      }

      .cls-23 {
        fill: #726a74;
      }

      .cls-24 {
        fill: #bac3cd;
      }

      .cls-25 {
        fill: #006ea3;
      }

      .cls-26 {
        fill: #ce616b;
      }

      .cls-27 {
        fill: #484848;
      }

      .cls-28 {
        fill: none;
        stroke: #006ea3;
        stroke-miterlimit: 10;
      }

      .cls-29 {
        fill: #c2c8ce;
      }

      .cls-30 {
        fill: #0d0e0e;
      }

      .cls-31 {
        fill: #0d0d0e;
      }
    </style>
    <filter id="drop-shadow-1" filterUnits="userSpaceOnUse">
      <feOffset dx="1" dy="1"/>
      <feGaussianBlur result="blur" stdDeviation="0"/>
      <feFlood flood-color="#000" flood-opacity=".75"/>
      <feComposite in2="blur" operator="in"/>
      <feComposite in="SourceGraphic"/>
    </filter>
    <filter id="drop-shadow-2" filterUnits="userSpaceOnUse">
      <feOffset dx="4" dy="8"/>
      <feGaussianBlur result="blur-2" stdDeviation="5"/>
      <feFlood flood-color="#000" flood-opacity=".3"/>
      <feComposite in2="blur-2" operator="in"/>
      <feComposite in="SourceGraphic"/>
    </filter>
  </defs>
  <g class="cls-8">
    <g id="botones">
      <g class="cls-16">
        <path class="cls-25" d="M64.41,8.91h2.17v11.49h-2.17V8.91Z"/>
        <path class="cls-25" d="M75.09,8.62h2.13v11.78h-2.13v-.9c-.42,.4-.83,.68-1.25,.86-.42,.17-.87,.26-1.36,.26-1.1,0-2.05-.43-2.85-1.28s-1.2-1.91-1.2-3.18,.39-2.39,1.16-3.23c.78-.84,1.72-1.26,2.82-1.26,.51,0,.99,.1,1.44,.29,.45,.19,.86,.48,1.24,.87v-4.22Zm-2.24,5.03c-.66,0-1.21,.23-1.64,.7-.44,.47-.65,1.06-.65,1.79s.22,1.34,.67,1.81c.44,.47,.99,.71,1.64,.71s1.23-.23,1.67-.7c.44-.47,.66-1.08,.66-1.83s-.22-1.34-.66-1.8c-.44-.46-1-.69-1.67-.69Z"/>
        <path class="cls-25" d="M87.89,16.77h-6.85c.1,.6,.36,1.08,.79,1.44,.43,.36,.98,.54,1.64,.54,.8,0,1.48-.28,2.05-.84l1.8,.84c-.45,.64-.98,1.11-1.61,1.41s-1.37,.46-2.23,.46c-1.33,0-2.42-.42-3.26-1.26-.84-.84-1.26-1.89-1.26-3.16s.42-2.37,1.25-3.23c.84-.86,1.88-1.29,3.14-1.29,1.34,0,2.43,.43,3.27,1.29,.84,.86,1.26,1.99,1.26,3.39v.41Zm-2.14-1.68c-.14-.47-.42-.86-.83-1.16s-.9-.45-1.44-.45c-.59,0-1.12,.17-1.56,.5-.28,.21-.54,.58-.78,1.1h4.62Z"/>
        <path class="cls-25" d="M89.62,11.9h2.13v.87c.48-.41,.92-.69,1.31-.85,.39-.16,.79-.24,1.21-.24,.84,0,1.56,.29,2.15,.88,.49,.5,.74,1.24,.74,2.22v5.62h-2.11v-3.72c0-1.01-.05-1.69-.14-2.02-.09-.33-.25-.59-.48-.76-.23-.17-.51-.26-.84-.26-.43,0-.8,.14-1.11,.43-.31,.29-.52,.69-.64,1.2-.06,.27-.09,.84-.09,1.72v3.41h-2.13V11.9Z"/>
        <path class="cls-25" d="M99.48,8.77h2.13v3.13h1.27v1.84h-1.27v6.66h-2.13v-6.66h-1.09v-1.84h1.09v-3.13Z"/>
        <path class="cls-25" d="M104.85,8.4c.37,0,.69,.14,.96,.41,.27,.27,.4,.6,.4,.98s-.13,.7-.4,.97c-.26,.27-.58,.4-.95,.4s-.7-.14-.97-.41c-.27-.27-.4-.61-.4-1s.13-.7,.4-.96c.26-.27,.58-.4,.96-.4Zm-1.07,3.5h2.13v8.5h-2.13V11.9Z"/>
        <path class="cls-25" d="M106.84,11.9h.76c0-1.11,.02-1.77,.05-1.98,.06-.47,.25-.84,.59-1.11s.81-.41,1.43-.41c.44,0,.94,.1,1.5,.3v1.62c-.31-.09-.56-.13-.76-.13-.25,0-.43,.05-.55,.16-.08,.08-.12,.24-.12,.48v1.06s1.34,0,1.34,0v1.8h-1.35v6.7h-2.13v-6.7h-.76v-1.8Z"/>
        <path class="cls-25" d="M113.16,8.4c.37,0,.69,.14,.96,.41,.27,.27,.4,.6,.4,.98s-.13,.7-.4,.97c-.26,.27-.58,.4-.95,.4s-.7-.14-.97-.41c-.27-.27-.4-.61-.4-1s.13-.7,.4-.96c.26-.27,.58-.4,.96-.4Zm-1.07,3.5h2.13v8.5h-2.13V11.9Z"/>
        <path class="cls-25" d="M124.48,13.62l-1.78,.98c-.33-.35-.66-.59-.99-.73-.33-.14-.71-.2-1.15-.2-.8,0-1.44,.24-1.94,.71-.49,.48-.74,1.09-.74,1.83s.24,1.31,.71,1.77c.47,.46,1.1,.69,1.87,.69,.95,0,1.7-.33,2.23-.98l1.68,1.15c-.91,1.19-2.2,1.78-3.86,1.78-1.5,0-2.67-.44-3.51-1.33-.85-.89-1.27-1.92-1.27-3.11,0-.82,.21-1.58,.62-2.27,.41-.69,.99-1.24,1.72-1.63,.74-.4,1.56-.59,2.47-.59,.84,0,1.6,.17,2.27,.5s1.22,.81,1.65,1.43Z"/>
        <path class="cls-25" d="M132.68,11.9h2.13v8.5h-2.13v-.9c-.42,.4-.83,.68-1.25,.86-.42,.17-.87,.26-1.36,.26-1.1,0-2.05-.43-2.85-1.28s-1.2-1.91-1.2-3.18,.39-2.39,1.16-3.23c.78-.84,1.72-1.26,2.82-1.26,.51,0,.99,.1,1.44,.29,.45,.19,.86,.48,1.24,.87v-.94Zm-2.24,1.75c-.66,0-1.21,.23-1.64,.7-.44,.47-.65,1.06-.65,1.79s.22,1.34,.67,1.81c.44,.47,.99,.71,1.64,.71s1.23-.23,1.67-.7c.44-.47,.66-1.08,.66-1.83s-.22-1.34-.66-1.8c-.44-.46-1-.69-1.67-.69Z"/>
        <path class="cls-25" d="M145.29,13.62l-1.78,.98c-.33-.35-.66-.59-.99-.73-.33-.14-.71-.2-1.15-.2-.8,0-1.44,.24-1.94,.71-.49,.48-.74,1.09-.74,1.83s.24,1.31,.71,1.77c.47,.46,1.1,.69,1.87,.69,.95,0,1.7-.33,2.23-.98l1.68,1.15c-.91,1.19-2.2,1.78-3.86,1.78-1.5,0-2.67-.44-3.51-1.33-.85-.89-1.27-1.92-1.27-3.11,0-.82,.21-1.58,.62-2.27,.41-.69,.99-1.24,1.72-1.63,.74-.4,1.56-.59,2.47-.59,.84,0,1.6,.17,2.27,.5s1.22,.81,1.65,1.43Z"/>
        <path class="cls-25" d="M148.04,8.4c.37,0,.69,.14,.96,.41,.27,.27,.4,.6,.4,.98s-.13,.7-.4,.97c-.26,.27-.58,.4-.95,.4s-.7-.14-.97-.41c-.27-.27-.4-.61-.4-1s.13-.7,.4-.96c.26-.27,.58-.4,.96-.4Zm-1.07,3.5h2.13v8.5h-2.13V11.9Z"/>
        <path class="cls-25" d="M155.04,11.69c.8,0,1.56,.2,2.26,.6,.71,.4,1.26,.95,1.65,1.63,.4,.69,.59,1.43,.59,2.23s-.2,1.55-.6,2.25c-.4,.7-.94,1.24-1.63,1.64s-1.45,.59-2.27,.59c-1.22,0-2.26-.43-3.12-1.3-.86-.87-1.29-1.92-1.29-3.16,0-1.33,.49-2.43,1.46-3.32,.85-.77,1.84-1.16,2.95-1.16Zm.04,2.01c-.66,0-1.21,.23-1.66,.69s-.66,1.05-.66,1.77,.22,1.34,.65,1.8c.44,.46,.99,.69,1.66,.69s1.22-.23,1.67-.7c.44-.46,.67-1.06,.67-1.79s-.22-1.32-.65-1.78c-.44-.46-.99-.68-1.67-.68Zm.36-6.41h2.52l-2.86,3.06h-1.53l1.87-3.06Z"/>
        <path class="cls-25" d="M161.29,11.9h2.13v.87c.48-.41,.92-.69,1.31-.85,.39-.16,.79-.24,1.21-.24,.84,0,1.56,.29,2.15,.88,.49,.5,.74,1.24,.74,2.22v5.62h-2.11v-3.72c0-1.01-.05-1.69-.14-2.02-.09-.33-.25-.59-.48-.76-.23-.17-.51-.26-.84-.26-.43,0-.8,.14-1.11,.43-.31,.29-.52,.69-.64,1.2-.06,.27-.09,.84-.09,1.72v3.41h-2.13V11.9Z"/>
        <path class="cls-25" d="M181.64,8.62h2.13v11.78h-2.13v-.9c-.42,.4-.83,.68-1.25,.86-.42,.17-.87,.26-1.36,.26-1.1,0-2.05-.43-2.85-1.28s-1.2-1.91-1.2-3.18,.39-2.39,1.16-3.23c.78-.84,1.72-1.26,2.82-1.26,.51,0,.99,.1,1.44,.29,.45,.19,.86,.48,1.24,.87v-4.22Zm-2.24,5.03c-.66,0-1.21,.23-1.64,.7-.44,.47-.65,1.06-.65,1.79s.22,1.34,.67,1.81c.44,.47,.99,.71,1.64,.71s1.23-.23,1.67-.7c.44-.47,.66-1.08,.66-1.83s-.22-1.34-.66-1.8c-.44-.46-1-.69-1.67-.69Z"/>
        <path class="cls-25" d="M194.45,16.77h-6.85c.1,.6,.36,1.08,.79,1.44,.43,.36,.98,.54,1.64,.54,.8,0,1.48-.28,2.05-.84l1.8,.84c-.45,.64-.98,1.11-1.61,1.41s-1.37,.46-2.23,.46c-1.33,0-2.42-.42-3.26-1.26-.84-.84-1.26-1.89-1.26-3.16s.42-2.37,1.25-3.23c.84-.86,1.88-1.29,3.14-1.29,1.34,0,2.43,.43,3.27,1.29,.84,.86,1.26,1.99,1.26,3.39v.41Zm-2.14-1.68c-.14-.47-.42-.86-.83-1.16s-.9-.45-1.44-.45c-.59,0-1.12,.17-1.56,.5-.28,.21-.54,.58-.78,1.1h4.62Z"/>
        <path class="cls-25" d="M201.48,8.4c.37,0,.69,.14,.96,.41,.27,.27,.4,.6,.4,.98s-.13,.7-.4,.97c-.26,.27-.58,.4-.95,.4s-.7-.14-.97-.41c-.27-.27-.4-.61-.4-1s.13-.7,.4-.96c.26-.27,.58-.4,.96-.4Zm-1.07,3.5h2.13v8.5h-2.13V11.9Z"/>
        <path class="cls-25" d="M204.47,11.9h2.13v.98c.36-.4,.77-.7,1.22-.9,.45-.2,.93-.3,1.46-.3s1.01,.13,1.44,.39c.43,.26,.77,.64,1.03,1.14,.34-.5,.75-.88,1.25-1.14,.49-.26,1.03-.39,1.61-.39s1.14,.14,1.59,.42c.46,.28,.79,.65,.99,1.1,.2,.45,.3,1.19,.3,2.21v4.98h-2.15v-4.31c0-.96-.12-1.62-.36-1.96-.24-.34-.6-.51-1.08-.51-.36,0-.69,.1-.98,.31-.29,.21-.5,.5-.64,.86s-.21,.96-.21,1.77v3.84h-2.15v-4.12c0-.76-.06-1.31-.17-1.65-.11-.34-.28-.59-.5-.76-.22-.17-.5-.25-.81-.25-.35,0-.68,.11-.97,.32s-.51,.51-.65,.89c-.14,.38-.22,.98-.22,1.8v3.78h-2.13V11.9Z"/>
        <path class="cls-25" d="M221.64,11.9v.94c.39-.39,.8-.67,1.25-.87,.45-.19,.93-.29,1.44-.29,1.11,0,2.05,.42,2.83,1.26,.78,.84,1.16,1.91,1.16,3.23s-.4,2.32-1.2,3.18c-.8,.85-1.75,1.28-2.85,1.28-.49,0-.95-.09-1.37-.26s-.84-.46-1.26-.86v4.01h-2.12V11.9h2.12Zm2.24,1.75c-.67,0-1.23,.23-1.67,.69-.44,.46-.66,1.06-.66,1.8s.22,1.37,.66,1.83c.44,.47,1,.7,1.67,.7s1.2-.24,1.64-.71c.45-.47,.67-1.08,.67-1.81s-.22-1.33-.66-1.79c-.44-.47-.99-.7-1.66-.7Z"/>
        <path class="cls-25" d="M236.36,11.9h2.13v8.5h-2.13v-.9c-.42,.4-.83,.68-1.25,.86-.42,.17-.87,.26-1.36,.26-1.1,0-2.05-.43-2.85-1.28s-1.2-1.91-1.2-3.18,.39-2.39,1.16-3.23c.78-.84,1.72-1.26,2.82-1.26,.51,0,.99,.1,1.44,.29,.45,.19,.86,.48,1.24,.87v-.94Zm-2.24,1.75c-.66,0-1.21,.23-1.64,.7-.44,.47-.65,1.06-.65,1.79s.22,1.34,.67,1.81c.44,.47,.99,.71,1.64,.71s1.23-.23,1.67-.7c.44-.47,.66-1.08,.66-1.83s-.22-1.34-.66-1.8c-.44-.46-1-.69-1.67-.69Z"/>
        <path class="cls-25" d="M248.97,13.62l-1.78,.98c-.33-.35-.66-.59-.99-.73-.33-.14-.71-.2-1.15-.2-.8,0-1.44,.24-1.94,.71-.49,.48-.74,1.09-.74,1.83s.24,1.31,.71,1.77c.47,.46,1.1,.69,1.87,.69,.95,0,1.7-.33,2.23-.98l1.68,1.15c-.91,1.19-2.2,1.78-3.86,1.78-1.5,0-2.67-.44-3.51-1.33-.85-.89-1.27-1.92-1.27-3.11,0-.82,.21-1.58,.62-2.27,.41-.69,.99-1.24,1.72-1.63,.74-.4,1.56-.59,2.47-.59,.84,0,1.6,.17,2.27,.5s1.22,.81,1.65,1.43Z"/>
        <path class="cls-25" d="M251.15,8.77h2.13v3.13h1.27v1.84h-1.27v6.66h-2.13v-6.66h-1.09v-1.84h1.09v-3.13Z"/>
        <path class="cls-25" d="M259.68,11.69c.8,0,1.56,.2,2.26,.6,.71,.4,1.26,.95,1.65,1.63,.4,.69,.59,1.43,.59,2.23s-.2,1.55-.6,2.25c-.4,.7-.94,1.24-1.63,1.64s-1.45,.59-2.27,.59c-1.22,0-2.26-.43-3.12-1.3-.86-.87-1.29-1.92-1.29-3.16,0-1.33,.49-2.43,1.46-3.32,.85-.77,1.84-1.16,2.95-1.16Zm.04,2.01c-.66,0-1.21,.23-1.66,.69s-.66,1.05-.66,1.77,.22,1.34,.65,1.8c.44,.46,.99,.69,1.66,.69s1.22-.23,1.67-.7c.44-.46,.67-1.06,.67-1.79s-.22-1.32-.65-1.78c-.44-.46-.99-.68-1.67-.68Z"/>
        <path class="cls-25" d="M271.13,13.09l-1.32,1.32c-.54-.53-1.02-.8-1.46-.8-.24,0-.43,.05-.56,.15-.14,.1-.2,.23-.2,.38,0,.11,.04,.22,.13,.32,.09,.1,.3,.23,.64,.39l.78,.39c.82,.41,1.39,.82,1.7,1.24,.31,.42,.46,.92,.46,1.48,0,.76-.28,1.39-.83,1.89-.55,.51-1.3,.76-2.23,.76-1.24,0-2.23-.48-2.97-1.45l1.31-1.43c.25,.29,.54,.53,.88,.71s.63,.27,.89,.27c.28,0,.51-.07,.68-.2,.17-.14,.26-.29,.26-.47,0-.33-.31-.65-.93-.96l-.72-.36c-1.38-.69-2.06-1.56-2.06-2.6,0-.67,.26-1.25,.78-1.72,.52-.48,1.18-.71,1.99-.71,.55,0,1.07,.12,1.56,.36,.49,.24,.9,.59,1.24,1.04Z"/>
        <path class="cls-25" d="M65.68,28.11h2.13l2.66,8.02,2.69-8.02h2.13l1.93,11.49h-2.12l-1.23-7.26-2.44,7.26h-1.93l-2.42-7.26-1.26,7.26h-2.13l1.99-11.49Z"/>
        <path class="cls-25" d="M87.25,35.97h-6.85c.1,.6,.36,1.08,.79,1.44,.43,.36,.98,.54,1.64,.54,.8,0,1.48-.28,2.05-.84l1.8,.84c-.45,.64-.98,1.11-1.61,1.41s-1.37,.46-2.23,.46c-1.33,0-2.42-.42-3.26-1.26-.84-.84-1.26-1.89-1.26-3.16s.42-2.37,1.25-3.23c.84-.86,1.88-1.29,3.14-1.29,1.34,0,2.43,.43,3.27,1.29,.84,.86,1.26,1.99,1.26,3.39v.41Zm-2.14-1.68c-.14-.47-.42-.86-.83-1.16s-.9-.45-1.44-.45c-.59,0-1.12,.17-1.56,.5-.28,.21-.54,.58-.78,1.1h4.62Z"/>
        <path class="cls-25" d="M95.25,27.82h2.13v11.78h-2.13v-.9c-.42,.4-.83,.68-1.25,.86-.42,.17-.87,.26-1.36,.26-1.1,0-2.05-.43-2.85-1.28s-1.2-1.91-1.2-3.18,.39-2.39,1.16-3.23c.78-.84,1.72-1.26,2.82-1.26,.51,0,.99,.1,1.44,.29,.45,.19,.86,.48,1.24,.87v-4.22Zm-2.24,5.03c-.66,0-1.21,.23-1.64,.7-.44,.47-.65,1.06-.65,1.79s.22,1.34,.67,1.81c.44,.47,.99,.71,1.64,.71s1.23-.23,1.67-.7c.44-.47,.66-1.08,.66-1.83s-.22-1.34-.66-1.8c-.44-.46-1-.69-1.67-.69Z"/>
        <path class="cls-25" d="M100.37,27.6c.37,0,.69,.14,.96,.41,.27,.27,.4,.6,.4,.98s-.13,.7-.4,.97c-.26,.27-.58,.4-.95,.4s-.7-.14-.97-.41c-.27-.27-.4-.61-.4-1s.13-.7,.4-.96c.26-.27,.58-.4,.96-.4Zm-1.07,3.5h2.13v8.5h-2.13v-8.5Z"/>
        <path class="cls-25" d="M107.37,30.89c.8,0,1.56,.2,2.26,.6,.71,.4,1.26,.95,1.65,1.63,.4,.69,.59,1.43,.59,2.23s-.2,1.55-.6,2.25c-.4,.7-.94,1.24-1.63,1.64s-1.45,.59-2.27,.59c-1.22,0-2.26-.43-3.12-1.3-.86-.87-1.29-1.92-1.29-3.16,0-1.33,.49-2.43,1.46-3.32,.85-.77,1.84-1.16,2.95-1.16Zm.04,2.01c-.66,0-1.21,.23-1.66,.69s-.66,1.05-.66,1.77,.22,1.34,.65,1.8c.44,.46,.99,.69,1.66,.69s1.22-.23,1.67-.7c.44-.46,.67-1.06,.67-1.79s-.22-1.32-.65-1.78c-.44-.46-.99-.68-1.67-.68Z"/>
        <path class="cls-25" d="M118.82,32.29l-1.32,1.32c-.54-.53-1.02-.8-1.46-.8-.24,0-.43,.05-.56,.15-.14,.1-.2,.23-.2,.38,0,.11,.04,.22,.13,.32,.09,.1,.3,.23,.64,.39l.78,.39c.82,.41,1.39,.82,1.7,1.24,.31,.42,.46,.92,.46,1.48,0,.76-.28,1.39-.83,1.89-.55,.51-1.3,.76-2.23,.76-1.24,0-2.23-.48-2.97-1.45l1.31-1.43c.25,.29,.54,.53,.88,.71s.63,.27,.89,.27c.28,0,.51-.07,.68-.2,.17-.14,.26-.29,.26-.47,0-.33-.31-.65-.93-.96l-.72-.36c-1.38-.69-2.06-1.56-2.06-2.6,0-.67,.26-1.25,.78-1.72,.52-.48,1.18-.71,1.99-.71,.55,0,1.07,.12,1.56,.36,.49,.24,.9,.59,1.24,1.04Z"/>
        <path class="cls-25" d="M128.87,28.11h2.22l4.42,11.49h-2.27l-.9-2.37h-4.69l-.94,2.37h-2.27l4.43-11.49Zm1.12,3.05l-1.54,3.95h3.07l-1.53-3.95Z"/>
        <path class="cls-25" d="M139.09,27.82v4.22c.39-.39,.8-.67,1.25-.87,.45-.19,.93-.29,1.44-.29,1.11,0,2.05,.42,2.83,1.26,.78,.84,1.16,1.91,1.16,3.23s-.4,2.32-1.2,3.18c-.8,.85-1.75,1.28-2.85,1.28-.49,0-.95-.09-1.37-.26s-.84-.46-1.26-.86v.9h-2.12v-11.78h2.12Zm2.24,5.03c-.67,0-1.23,.23-1.67,.69-.44,.46-.66,1.06-.66,1.8s.22,1.37,.66,1.83c.44,.47,1,.7,1.67,.7s1.2-.24,1.64-.71c.45-.47,.67-1.08,.67-1.81s-.22-1.33-.66-1.79c-.44-.47-.99-.7-1.66-.7Z"/>
        <path class="cls-25" d="M148.36,27.6c.37,0,.69,.14,.96,.41,.27,.27,.4,.6,.4,.98s-.13,.7-.4,.97c-.26,.27-.58,.4-.95,.4s-.7-.14-.97-.41c-.27-.27-.4-.61-.4-1s.13-.7,.4-.96c.26-.27,.58-.4,.96-.4Zm-1.07,3.5h2.13v8.5h-2.13v-8.5Z"/>
        <path class="cls-25" d="M155.36,30.89c.8,0,1.56,.2,2.26,.6,.71,.4,1.26,.95,1.65,1.63,.4,.69,.59,1.43,.59,2.23s-.2,1.55-.6,2.25c-.4,.7-.94,1.24-1.63,1.64s-1.45,.59-2.27,.59c-1.22,0-2.26-.43-3.12-1.3-.86-.87-1.29-1.92-1.29-3.16,0-1.33,.49-2.43,1.46-3.32,.85-.77,1.84-1.16,2.95-1.16Zm.04,2.01c-.66,0-1.21,.23-1.66,.69s-.66,1.05-.66,1.77,.22,1.34,.65,1.8c.44,.46,.99,.69,1.66,.69s1.22-.23,1.67-.7c.44-.46,.67-1.06,.67-1.79s-.22-1.32-.65-1.78c-.44-.46-.99-.68-1.67-.68Zm.36-6.41h2.52l-2.86,3.06h-1.53l1.87-3.06Z"/>
        <path class="cls-25" d="M161.87,27.97h2.13v3.13h1.27v1.84h-1.27v6.66h-2.13v-6.66h-1.09v-1.84h1.09v-3.13Z"/>
        <path class="cls-25" d="M167.24,27.6c.37,0,.69,.14,.96,.41,.27,.27,.4,.6,.4,.98s-.13,.7-.4,.97c-.26,.27-.58,.4-.95,.4s-.7-.14-.97-.41c-.27-.27-.4-.61-.4-1s.13-.7,.4-.96c.26-.27,.58-.4,.96-.4Zm-1.07,3.5h2.13v8.5h-2.13v-8.5Z"/>
        <path class="cls-25" d="M178.56,32.82l-1.78,.98c-.33-.35-.66-.59-.99-.73-.33-.14-.71-.2-1.15-.2-.8,0-1.44,.24-1.94,.71-.49,.48-.74,1.09-.74,1.83s.24,1.31,.71,1.77c.47,.46,1.1,.69,1.87,.69,.95,0,1.7-.33,2.23-.98l1.68,1.15c-.91,1.19-2.2,1.78-3.86,1.78-1.5,0-2.67-.44-3.51-1.33-.85-.89-1.27-1.92-1.27-3.11,0-.82,.21-1.58,.62-2.27,.41-.69,.99-1.24,1.72-1.63,.74-.4,1.56-.59,2.47-.59,.84,0,1.6,.17,2.27,.5s1.22,.81,1.65,1.43Z"/>
        <path class="cls-25" d="M184.48,30.89c.8,0,1.56,.2,2.26,.6,.71,.4,1.26,.95,1.65,1.63,.4,.69,.59,1.43,.59,2.23s-.2,1.55-.6,2.25c-.4,.7-.94,1.24-1.63,1.64s-1.45,.59-2.27,.59c-1.22,0-2.26-.43-3.12-1.3-.86-.87-1.29-1.92-1.29-3.16,0-1.33,.49-2.43,1.46-3.32,.85-.77,1.84-1.16,2.95-1.16Zm.04,2.01c-.66,0-1.21,.23-1.66,.69s-.66,1.05-.66,1.77,.22,1.34,.65,1.8c.44,.46,.99,.69,1.66,.69s1.22-.23,1.67-.7c.44-.46,.67-1.06,.67-1.79s-.22-1.32-.65-1.78c-.44-.46-.99-.68-1.67-.68Z"/>
        <path class="cls-25" d="M194.26,31.1h2.18l2.21,5.33,2.44-5.33h2.19l-5.32,11.61h-2.2l1.75-3.74-3.23-7.87Z"/>
        <path class="cls-25" d="M209.2,39.6v-11.49h1.81c1.05,0,1.81,.07,2.3,.2,.69,.18,1.24,.52,1.64,1.02,.41,.5,.61,1.08,.61,1.75,0,.44-.09,.83-.28,1.19-.19,.36-.49,.69-.9,1,.7,.33,1.21,.74,1.53,1.23,.32,.49,.48,1.07,.48,1.75s-.17,1.23-.5,1.77c-.33,.53-.76,.93-1.29,1.19-.53,.26-1.25,.39-2.18,.39h-3.22Zm2.19-9.41v2.42h.48c.53,0,.93-.11,1.19-.34,.26-.22,.39-.53,.39-.91,0-.36-.12-.64-.37-.86s-.62-.32-1.12-.32h-.56Zm0,4.38v2.95h.55c.91,0,1.52-.11,1.84-.34,.32-.23,.47-.56,.47-1,0-.49-.19-.89-.56-1.17-.37-.29-.99-.43-1.85-.43h-.45Z"/>
        <path class="cls-25" d="M219.07,27.6c.37,0,.69,.14,.96,.41,.27,.27,.4,.6,.4,.98s-.13,.7-.4,.97c-.26,.27-.58,.4-.95,.4s-.7-.14-.97-.41c-.27-.27-.4-.61-.4-1s.13-.7,.4-.96c.26-.27,.58-.4,.96-.4Zm-1.07,3.5h2.13v8.5h-2.13v-8.5Z"/>
        <path class="cls-25" d="M226.07,30.89c.8,0,1.56,.2,2.26,.6,.71,.4,1.26,.95,1.65,1.63,.4,.69,.59,1.43,.59,2.23s-.2,1.55-.6,2.25c-.4,.7-.94,1.24-1.63,1.64s-1.45,.59-2.27,.59c-1.22,0-2.26-.43-3.12-1.3-.86-.87-1.29-1.92-1.29-3.16,0-1.33,.49-2.43,1.46-3.32,.85-.77,1.84-1.16,2.95-1.16Zm.04,2.01c-.66,0-1.21,.23-1.66,.69s-.66,1.05-.66,1.77,.22,1.34,.65,1.8c.44,.46,.99,.69,1.66,.69s1.22-.23,1.67-.7c.44-.46,.67-1.06,.67-1.79s-.22-1.32-.65-1.78c-.44-.46-.99-.68-1.67-.68Zm.36-6.41h2.52l-2.86,3.06h-1.53l1.87-3.06Z"/>
        <path class="cls-25" d="M232.58,27.97h2.13v3.13h1.27v1.84h-1.27v6.66h-2.13v-6.66h-1.09v-1.84h1.09v-3.13Z"/>
        <path class="cls-25" d="M237.95,27.6c.37,0,.69,.14,.96,.41,.27,.27,.4,.6,.4,.98s-.13,.7-.4,.97c-.26,.27-.58,.4-.95,.4s-.7-.14-.97-.41c-.27-.27-.4-.61-.4-1s.13-.7,.4-.96c.26-.27,.58-.4,.96-.4Zm-1.07,3.5h2.13v8.5h-2.13v-8.5Z"/>
        <path class="cls-25" d="M249.27,32.82l-1.78,.98c-.33-.35-.66-.59-.99-.73-.33-.14-.71-.2-1.15-.2-.8,0-1.44,.24-1.94,.71-.49,.48-.74,1.09-.74,1.83s.24,1.31,.71,1.77c.47,.46,1.1,.69,1.87,.69,.95,0,1.7-.33,2.23-.98l1.68,1.15c-.91,1.19-2.2,1.78-3.86,1.78-1.5,0-2.67-.44-3.51-1.33-.85-.89-1.27-1.92-1.27-3.11,0-.82,.21-1.58,.62-2.27,.41-.69,.99-1.24,1.72-1.63,.74-.4,1.56-.59,2.47-.59,.84,0,1.6,.17,2.27,.5s1.22,.81,1.65,1.43Z"/>
        <path class="cls-25" d="M255.19,30.89c.8,0,1.56,.2,2.26,.6,.71,.4,1.26,.95,1.65,1.63,.4,.69,.59,1.43,.59,2.23s-.2,1.55-.6,2.25c-.4,.7-.94,1.24-1.63,1.64s-1.45,.59-2.27,.59c-1.22,0-2.26-.43-3.12-1.3-.86-.87-1.29-1.92-1.29-3.16,0-1.33,.49-2.43,1.46-3.32,.85-.77,1.84-1.16,2.95-1.16Zm.04,2.01c-.66,0-1.21,.23-1.66,.69s-.66,1.05-.66,1.77,.22,1.34,.65,1.8c.44,.46,.99,.69,1.66,.69s1.22-.23,1.67-.7c.44-.46,.67-1.06,.67-1.79s-.22-1.32-.65-1.78c-.44-.46-.99-.68-1.67-.68Z"/>
      </g>
      <g>
        <g class="cls-22">
          <ellipse class="cls-2" cx="29" cy="25.55" rx="17.83" ry="18.41"/>
          <circle class="cls-25" cx="29" cy="24.62" r="17.38" transform="translate(-8.91 27.72) rotate(-45)"/>
          <g class="cls-21">
            <circle class="cls-7" cx="29" cy="25.63" r="13.48"/>
          </g>
          <circle class="cls-1" cx="29" cy="24.62" r="15.89"/>
          <circle class="cls-28" cx="29" cy="24.62" r="13.98"/>
        </g>
        <g>
          <g>
            <path class="cls-5" d="M35.13,24.15c0-.27,0-.53,0-.79,0-.05-.02-.05-.06-.05-.18,0-.36,.01-.54-.01-.55-.08-.99-.58-1-1.14,0-.06,.01-.12,.08-.12,.26,0,.52-.03,.78,.03,.36,.09,.62,.31,.79,.64,0,.02,.02,.03,.03,.06,.03-.06,.06-.11,.09-.16,.24-.37,.58-.56,1.03-.57,.15,0,.3,0,.45,0,.09,0,.12,.03,.12,.13-.02,.62-.54,1.13-1.16,1.15-.13,0-.25,0-.38,0-.04,0-.06,0-.06,.05,0,.26,0,.51,0,.77,.03,0,.03-.03,.04-.04,.29-.46,.7-.71,1.24-.74,.23-.01,.47,0,.7,0,.08,0,.11,.04,.11,.13-.01,.68-.51,1.3-1.18,1.45-.25,.06-.51,.04-.76,.04-.16,0-.16,0-.16,.15,0,.24,0,.48,0,.71,0,.04,0,.08-.04,.1-.03,.02-.06,.02-.09,0-.04-.02-.05-.06-.05-.1,0-.18,0-.36,0-.54,0-.08,0-.17,0-.25,0-.07-.01-.09-.09-.09-.19,0-.39,0-.58,0-.78-.04-1.41-.7-1.43-1.48,0-.09,.02-.13,.1-.13,.26,0,.53-.02,.79,.01,.51,.05,.9,.31,1.17,.75,0,0,.01,.02,.02,.03,0,0,0,0,.02,.01Zm1.72-.62s0,0,0,0c-.07,0-.14,0-.21,0-.64,0-1.19,.46-1.31,1.09-.03,.17-.03,.18,.14,.17,.23,0,.46,.02,.69-.03,.56-.13,.99-.6,1.05-1.17,0-.05,0-.07-.06-.07-.1,0-.2,0-.31,0Zm-3.22,0c-.15,0-.26,0-.36,0-.06,0-.06,.02-.06,.07,.06,.55,.47,1.01,1,1.15,.29,.08,.58,.04,.87,.05,.06,0,.04-.04,.04-.07-.07-.49-.32-.84-.76-1.07-.24-.12-.5-.14-.72-.13Zm1.96-.39s.08,0,.12,0c.5,0,.9-.35,.99-.85,0-.05,0-.08-.06-.07-.13,0-.25,0-.38,0-.48,.01-.89,.38-.96,.86,0,.05,0,.07,.05,.06,.08,0,.15,0,.23,0Zm-.8,0c.11,0,.19,0,.27,0,.05,0,.06-.02,.05-.07-.06-.4-.36-.72-.75-.82-.2-.05-.41-.03-.62-.03-.05,0-.03,.03-.03,.06,.04,.29,.19,.51,.42,.68,.21,.15,.44,.2,.66,.18Z"/>
            <path class="cls-12" d="M31.34,18.48c.48,0,.96,0,1.44,0,.22,0,.41,.16,.45,.37,.04,.21-.06,.42-.25,.52-.05,.02-.1,.05-.15,.04-.07,0-.08,.03-.08,.09,0,1.54,0,3.08,0,4.62,0,.59-.27,1.04-.8,1.3-.89,.45-1.97-.19-2.03-1.18,0-.06,0-.13,0-.19,0-1.51,0-3.03,0-4.54,0-.07,0-.09-.09-.1-.23-.02-.42-.24-.4-.48,.01-.24,.21-.44,.45-.45,0,0,.01,0,.02,0,.48,0,.96,0,1.45,0Zm-1.07,6.3c.27,.52,1,.76,1.56,.51,.5-.23,.75-.63,.75-1.17,0-1.54,0-3.08,0-4.61,0-.01,0-.03,0-.04,0-.04-.01-.05-.05-.05-.33,0-.65,0-.98,0-.46,0-.92,0-1.38,0-.07,0-.09,.02-.09,.09,0,1.08,0,2.16,0,3.24,0,.47,0,.94,0,1.4,0,.23,.05,.44,.18,.64Zm1.06-5.54c.47,0,.95,0,1.42,0,.11,0,.21-.04,.27-.14,.13-.21-.02-.46-.27-.46-.33,0-.67,0-1,0-.6,0-1.21,0-1.81,0-.13,0-.25,.05-.3,.18-.09,.21,.05,.42,.28,.42,.47,0,.95,0,1.42,0Z"/>
            <path class="cls-9" d="M36.85,23.52c.1,0,.2,0,.31,0,.05,0,.07,.02,.06,.07-.06,.56-.49,1.04-1.05,1.17-.23,.05-.46,.03-.69,.03-.18,0-.18,0-.14-.17,.13-.63,.67-1.08,1.31-1.09,.07,0,.14,0,.21,0,0,0,0,0,0,0Z"/>
            <path class="cls-9" d="M33.64,23.52c.22-.01,.48,0,.72,.13,.44,.22,.69,.58,.76,1.07,0,.03,.02,.07-.04,.07-.29-.01-.58,.03-.87-.05-.53-.14-.94-.61-1-1.15,0-.05,0-.07,.06-.07,.11,0,.21,0,.36,0Z"/>
            <path class="cls-13" d="M35.6,23.13c-.08,0-.16,0-.23,0-.05,0-.06-.02-.05-.06,.07-.47,.48-.84,.96-.86,.13,0,.25,0,.38,0,.06,0,.07,.02,.06,.07-.09,.5-.49,.84-.99,.85-.04,0-.08,0-.12,0Z"/>
            <path class="cls-13" d="M34.8,23.13c-.22,.02-.45-.03-.66-.18-.23-.17-.38-.39-.42-.68,0-.03-.02-.06,.03-.06,.21,0,.41-.02,.62,.03,.39,.1,.69,.42,.75,.82,0,.05,0,.07-.05,.07-.08,0-.15,0-.27,0Z"/>
            <path class="cls-15" d="M30.27,24.78c-.13-.19-.18-.41-.18-.64,0-.47,0-.94,0-1.4,0-1.08,0-2.16,0-3.24,0-.07,.01-.09,.09-.09,.46,0,.92,0,1.38,0,.01,.02,.03,.05,.04,.07,.28,.52,.45,1.07,.49,1.66,.03,.42,0,.83-.11,1.24-.15,.59-.42,1.13-.81,1.6-.04,.05-.07,.13-.15,.15,0-.08-.04-.11-.12-.1-.09,0-.18,0-.27,0-.06,0-.11,.02-.11,.08,0,.07,.04,.09,.1,.09,.11,0,.22,0,.33,0,0,.03-.02,.04-.03,.06-.09,.1-.19,.19-.3,.28-.12,.09-.22,.19-.36,.25Zm.5-4.73c.06,0,.11,0,.17,0,.05,0,.08-.04,.08-.09,0-.05-.03-.08-.08-.09-.11,0-.22,0-.33,0-.05,0-.08,.03-.09,.08,0,.06,.03,.09,.09,.09,.05,0,.11,0,.17,0Zm0,1.6c-.06,0-.11,0-.17,0-.05,0-.09,.03-.09,.09,0,.05,.03,.08,.08,.08,.11,0,.22,0,.33,0,.05,0,.08-.03,.09-.08,0-.05-.03-.09-.09-.09-.05,0-.1,0-.16,0Zm0,1.95c.05,0,.1,0,.16,0,.05,0,.09-.03,.09-.09,0-.05-.04-.08-.09-.08-.1,0-.21,0-.31,0-.05,0-.09,.03-.09,.08,0,.06,.03,.09,.09,.09,.06,0,.11,0,.17,0Zm0-.59c.06,0,.11,0,.17,0,.06,0,.09-.03,.09-.09,0-.05-.03-.08-.08-.08-.11,0-.22,0-.33,0-.05,0-.09,.03-.08,.09,0,.05,.04,.08,.09,.08,.05,0,.1,0,.16,0Zm0-1.78s.1,0,.15,0c.06,0,.1-.03,.1-.08,0-.06-.04-.09-.1-.09-.1,0-.2,0-.31,0-.06,0-.09,.03-.09,.08,0,.06,.04,.09,.1,.09,.05,0,.1,0,.15,0Zm0-.59c.06,0,.11,0,.17,0,.06,0,.09-.03,.09-.09,0-.05-.03-.08-.09-.08-.11,0-.22,0-.33,0-.05,0-.08,.03-.08,.09,0,.05,.03,.08,.08,.08,.05,0,.11,0,.16,0Zm.02,1.61c-.06,0-.12,0-.17,0-.05,0-.08,.03-.08,.08,0,.05,.03,.08,.08,.08,.11,0,.22,0,.33,0,.05,0,.08-.03,.08-.08,0-.05-.03-.08-.08-.09-.05,0-.11,0-.16,0Z"/>
            <path class="cls-29" d="M31.02,24.13c.08-.02,.11-.09,.15-.15,.39-.47,.66-1,.81-1.6,.1-.41,.13-.82,.11-1.24-.04-.59-.21-1.14-.49-1.66-.01-.02-.03-.05-.04-.07,.33,0,.65,0,.98,0,.03,0,.05,.01,.05,.05,0,.01,0,.03,0,.04,0,1.54,0,3.08,0,4.61,0,.54-.26,.94-.75,1.17-.56,.26-1.28,.02-1.56-.51,.13-.06,.24-.16,.36-.25,.11-.08,.2-.18,.3-.28,.02-.02,.03-.03,.03-.06,.03-.01,.05-.04,.06-.07Z"/>
            <path class="cls-27" d="M31.33,19.24c-.47,0-.95,0-1.42,0-.23,0-.37-.21-.28-.42,.06-.13,.17-.18,.3-.18,.6,0,1.21,0,1.81,0,.33,0,.67,0,1,0,.26,0,.4,.24,.27,.46-.06,.1-.15,.14-.27,.14-.47,0-.95,0-1.42,0Z"/>
            <path class="cls-14" d="M30.77,20.05c-.06,0-.11,0-.17,0-.05,0-.09-.03-.09-.09,0-.05,.04-.08,.09-.08,.11,0,.22,0,.33,0,.05,0,.08,.04,.08,.09,0,.05-.03,.08-.08,.09-.05,0-.11,0-.17,0Z"/>
            <path class="cls-30" d="M30.77,21.66c.05,0,.11,0,.16,0,.05,0,.09,.04,.09,.09,0,.05-.03,.08-.09,.08-.11,0-.22,0-.33,0-.05,0-.08-.03-.08-.08,0-.06,.03-.09,.09-.09,.06,0,.11,0,.17,0Z"/>
            <path class="cls-31" d="M30.77,23.61c-.06,0-.11,0-.17,0-.05,0-.09-.03-.09-.09,0-.06,.04-.08,.09-.08,.1,0,.21,0,.31,0,.06,0,.09,.03,.09,.08,0,.06-.03,.09-.09,.09-.05,0-.1,0-.16,0Z"/>
            <path class="cls-4" d="M30.76,23.02c-.05,0-.1,0-.16,0-.05,0-.08-.03-.09-.08,0-.06,.03-.09,.08-.09,.11,0,.22,0,.33,0,.05,0,.08,.03,.08,.08,0,.05-.03,.09-.09,.09-.06,0-.11,0-.17,0Z"/>
            <path class="cls-17" d="M30.76,21.24s-.1,0-.15,0c-.06,0-.1-.03-.1-.09,0-.06,.04-.08,.09-.08,.1,0,.2,0,.31,0,.06,0,.1,.03,.1,.09,0,.06-.04,.09-.1,.08-.05,0-.1,0-.15,0Z"/>
            <path class="cls-17" d="M30.76,20.64c-.05,0-.11,0-.16,0-.05,0-.08-.03-.08-.08,0-.05,.03-.08,.08-.09,.11,0,.22,0,.33,0,.05,0,.08,.03,.09,.08,0,.05-.03,.09-.09,.09-.06,0-.11,0-.17,0Z"/>
            <path class="cls-17" d="M30.77,22.25c.05,0,.11,0,.16,0,.05,0,.08,.04,.08,.09,0,.05-.03,.08-.08,.08-.11,0-.22,0-.33,0-.05,0-.08-.03-.08-.08,0-.05,.03-.08,.08-.08,.06,0,.12,0,.17,0Z"/>
            <path class="cls-17" d="M31.02,24.13s-.03,.05-.06,.07c-.11,0-.22,0-.33,0-.06,0-.11-.02-.1-.09,0-.07,.05-.08,.11-.08,.09,0,.18,0,.27,0,.07,0,.12,.03,.12,.1Z"/>
          </g>
          <g>
            <path class="cls-3" d="M28.56,16.49c-.12-.26-.1-.33,.14-.52,4.2-3.21,10.34-1.18,11.69,4.09,.08,.32,.13,.64,.17,.97,0,.04-.02,.1,.04,.12v1.38c-.09,.18-.08,.38-.11,.56-.54,3.08-2.95,5.48-6.02,5.99-1.85,.31-3.58-.03-5.17-1.02-.17-.11-.28-.1-.42,.04-.42,.44-.86,.87-1.3,1.3-.09,.09-.09,.14,0,.23,.19,.19,.18,.36,0,.55-.08,.09-.17,.17-.25,.25-.12,.12-.29,.22-.19,.45,.04,.09-.04,.19-.11,.26-.27,.27-.55,.55-.82,.82-.1,.1-.23,.15-.36,.1-.12-.05-.16,0-.23,.07-.59,.6-1.19,1.19-1.79,1.79-.24,.24-.48,.48-.72,.71h-2.53c-.16-.09-.2-.23-.2-.41,0-.69,0-1.38,0-2.07,0-.17,.05-.3,.17-.42,.77-.76,1.54-1.53,2.31-2.3,.08-.08,.15-.14,.09-.28-.05-.11,0-.23,.09-.32,.28-.28,.56-.56,.84-.84,.11-.11,.24-.14,.38-.09,.08,.03,.12,0,.17-.05,.14-.14,.28-.28,.42-.42,.18-.18,.36-.19,.53,0,.11,.12,.16,.09,.26-.01,.42-.43,.84-.85,1.27-1.27,.15-.15,.16-.26,.05-.44-.81-1.28-1.18-2.69-1.12-4.2,.07-1.65,.62-3.11,1.66-4.4,.13-.16,.27-.22,.46-.13,.17,.21,.17,.29-.01,.52-1.86,2.35-2.04,5.4-.46,7.95,.24,.4,.21,.73-.12,1.07-.44,.44-.88,.89-1.33,1.32-.1,.1-.09,.15,0,.24,.3,.29,.59,.58,.88,.88,.11,.12,.16,.09,.26,0,.41-.42,.83-.83,1.24-1.24,.43-.43,.71-.46,1.22-.15,1.51,.92,3.15,1.23,4.88,.89,3.03-.59,5.31-3.17,5.46-6.27,.13-2.74-1.01-4.9-3.39-6.26-2.56-1.46-5.11-1.23-7.52,.48-.17,.12-.33,.2-.51,.05Zm-3.96,14.01c-.19,.12-.34,.08-.49-.08-.19-.2-.39-.39-.58-.59-.09-.09-.14-.1-.23,0-.74,.75-1.49,1.49-2.23,2.23-.06,.06-.1,.13-.1,.22,0,.54,0,1.08,0,1.62,0,.13,.04,.15,.16,.15,.53,0,1.07,0,1.6,0,.1,0,.17-.03,.24-.1,.22-.22,.44-.44,.65-.66,.52-.52,1.04-1.04,1.56-1.56,.05-.05,.16-.1,.06-.18-.18-.14-.17-.32-.12-.51,.25-.14,.45-.06,.61,.16,.04,.05,.09,.08,.12,.13,.05,.07,.1,.07,.16,0,.11-.12,.23-.24,.35-.35,.07-.06,.07-.1,0-.17-.72-.71-1.43-1.43-2.15-2.15-.06-.06-.1-.06-.16,0-.11,.12-.22,.23-.33,.33-.08,.07-.08,.12,0,.2,.27,.26,.54,.54,.81,.81,.19,.19,.2,.27,.07,.5Zm2.38-.6s-.06-.08-.09-.11c-.55-.55-1.11-1.11-1.66-1.66-.09-.1-.16-.09-.24,0-.03,.04-.06,.07-.1,.1-.13,.09-.12,.17,0,.28,.55,.53,1.08,1.08,1.62,1.61,.05,.04,.09,.15,.17,.09,.11-.09,.22-.18,.3-.31Z"/>
            <path class="cls-19" d="M28.56,16.49c.19,.14,.34,.07,.51-.05,2.41-1.71,4.95-1.94,7.52-.48,2.38,1.35,3.52,3.52,3.39,6.26-.15,3.1-2.43,5.68-5.46,6.27-1.74,.34-3.37,.04-4.88-.89-.51-.31-.79-.28-1.22,.15-.41,.41-.83,.82-1.24,1.24-.1,.1-.15,.12-.26,0-.28-.3-.58-.59-.88-.88-.1-.09-.11-.15,0-.24,.45-.44,.89-.88,1.33-1.32,.33-.33,.37-.67,.12-1.07-1.58-2.55-1.4-5.6,.46-7.95,.18-.23,.18-.31,.01-.52,.18-.07,.26-.25,.41-.35,.07-.05,.11-.13,.19-.16Zm4.65-.42c-3.16,0-5.75,2.59-5.75,5.75,0,3.16,2.56,5.72,5.74,5.74,3.15,.02,5.75-2.57,5.76-5.74,0-3.16-2.58-5.75-5.75-5.75Z"/>
            <path class="cls-18" d="M25.08,19.5c0,.55-.51,.94-1.06,.81-.52-.13-1.04-.26-1.56-.41-.48-.13-.73-.57-.62-1.03,.11-.45,.56-.71,1.04-.6,.52,.13,1.04,.26,1.56,.41,.4,.11,.64,.43,.63,.82Zm-.89,.24c.17,0,.27-.06,.29-.19,.03-.15-.05-.25-.2-.29-.51-.13-1.01-.27-1.52-.39-.16-.04-.29-.01-.34,.17-.04,.15,.04,.26,.24,.31,.41,.11,.81,.21,1.22,.32,.11,.03,.23,.06,.31,.08Z"/>
            <path class="cls-18" d="M22.63,23.31c-.68,.02-1.02-.21-1.12-.67-.09-.44,.22-.93,.67-.97,.61-.06,1.22-.1,1.83-.12,.41-.01,.76,.35,.8,.76,.03,.44-.25,.84-.68,.9-.54,.06-1.09,.08-1.49,.11Zm-.13-.58s0,0,0,0c.48-.03,.96-.05,1.43-.09,.18-.01,.29-.12,.27-.27-.02-.17-.13-.24-.29-.23-.52,.03-1.05,.06-1.57,.1-.16,.01-.26,.09-.27,.26,0,.15,.12,.24,.3,.24,.04,0,.08,0,.12,0Z"/>
            <path class="cls-18" d="M23.19,16.03c0-.7,.67-1.13,1.21-.82,.52,.29,1.03,.63,1.53,.97,.35,.24,.42,.75,.19,1.11-.23,.36-.71,.51-1.09,.29-.51-.3-1.01-.63-1.51-.96-.23-.15-.32-.39-.33-.59Zm2.46,.76s-.03-.11-.1-.16c-.46-.3-.93-.6-1.4-.89-.12-.08-.25-.04-.33,.08-.08,.12-.06,.25,.06,.33,.47,.31,.93,.61,1.41,.9,.17,.1,.36-.03,.36-.26Z"/>
            <path class="cls-20" d="M25.12,31.04c-.05,.19-.06,.37,.12,.51,.11,.08,0,.14-.06,.18-.52,.52-1.04,1.04-1.56,1.56-.22,.22-.44,.43-.65,.66-.07,.07-.14,.1-.24,.1-.53,0-1.07,0-1.6,0-.12,0-.16-.02-.16-.15,0-.54,0-1.08,0-1.62,0-.1,.04-.16,.1-.22,.75-.74,1.49-1.48,2.23-2.23,.09-.09,.15-.09,.23,0,.19,.2,.39,.39,.58,.59,.15,.16,.3,.2,.49,.08,.18,.17,.38,.33,.51,.54Z"/>
            <path class="cls-24" d="M25.12,31.04c-.14-.21-.33-.37-.51-.54,.13-.23,.12-.31-.07-.5-.27-.27-.54-.54-.81-.81-.08-.08-.08-.13,0-.2,.12-.1,.23-.22,.33-.33,.06-.06,.1-.06,.16,0,.71,.72,1.43,1.43,2.15,2.15,.07,.07,.06,.11,0,.17-.12,.11-.24,.23-.35,.35-.06,.06-.1,.06-.16,0-.04-.05-.09-.08-.12-.13-.16-.21-.36-.29-.61-.16Z"/>
            <path class="cls-23" d="M26.99,29.9c-.08,.13-.19,.23-.3,.31-.08,.06-.12-.04-.17-.09-.54-.54-1.08-1.08-1.62-1.61-.11-.11-.12-.18,0-.28,.04-.03,.07-.06,.1-.1,.08-.1,.14-.1,.24,0,.55,.56,1.11,1.11,1.66,1.66,.03,.03,.06,.07,.09,.11Z"/>
            <path class="cls-6" d="M33.22,16.07c3.17,0,5.75,2.59,5.75,5.75,0,3.17-2.61,5.76-5.76,5.74-3.18-.02-5.73-2.58-5.74-5.74,0-3.16,2.59-5.75,5.75-5.75Zm2.46,1.23s-.04-.02-.05-.02c-1.1-.61-2.27-.75-3.49-.49-3.14,.68-4.9,4.01-3.69,6.98,.49,1.21,1.33,2.11,2.52,2.68,.98,.5,2.02,.64,3.1,.46,3-.49,4.93-3.5,4.12-6.43-.39-1.4-1.23-2.46-2.51-3.17h0s0,0,0,0Z"/>
            <path class="cls-26" d="M24.19,19.74c-.08-.02-.2-.05-.31-.08-.41-.11-.81-.21-1.22-.32-.2-.05-.28-.16-.24-.31,.05-.18,.19-.21,.34-.17,.51,.13,1.02,.26,1.52,.39,.15,.04,.22,.14,.2,.29-.03,.13-.12,.2-.29,.19Z"/>
            <path class="cls-26" d="M22.5,22.73s-.08,0-.12,0c-.18,0-.3-.09-.3-.24,0-.17,.11-.25,.27-.26,.52-.03,1.05-.07,1.57-.1,.16,0,.27,.06,.29,.23,.02,.15-.09,.26-.27,.27-.48,.03-.96,.06-1.43,.09,0,0,0,0,0,0Z"/>
            <path class="cls-26" d="M25.65,16.79c0,.23-.19,.36-.36,.26-.48-.29-.94-.59-1.41-.9-.12-.08-.14-.21-.06-.33,.08-.12,.2-.15,.33-.08,.47,.29,.93,.59,1.4,.89,.07,.05,.1,.12,.1,.16Z"/>
            <path class="cls-10" d="M30.96,26.44c.23,.03,.45,.04,.68,.04,.72,0,1.41-.15,2.08-.42,.69-.28,1.29-.7,1.81-1.22,.24-.24,.47-.51,.64-.81,.29-.08,.34-.16,.3-.44,.16-.43,.35-.84,.46-1.3,.27-1.17,.18-2.31-.29-3.42-.22-.52-.52-1-.9-1.42-.04-.04-.09-.08-.06-.15,1.28,.7,2.12,1.77,2.51,3.17,.81,2.93-1.12,5.94-4.12,6.43-1.08,.18-2.12,.04-3.1-.46Z"/>
            <path class="cls-11" d="M35.68,17.3s-.04,0-.05-.02c.02,0,.04,.02,.05,.02Z"/>
          </g>
        </g>
      </g>
    </g>
  </g>
</svg>