<?xml version="1.0" encoding="UTF-8"?>
<svg xmlns="http://www.w3.org/2000/svg" xmlns:xlink="http://www.w3.org/1999/xlink" viewBox="0 0 260.7 66.96">
  <defs>
    <style>
      .cls-1 {
        fill: #9ab2c2;
      }

      .cls-2 {
        fill: #fff;
      }

      .cls-3 {
        fill: #da8087;
      }

      .cls-4 {
        fill: #dfb9ad;
      }

      .cls-5 {
        fill: #b2b2b2;
      }

      .cls-6 {
        isolation: isolate;
      }

      .cls-7 {
        fill: #020202;
      }

      .cls-8 {
        fill: #6c89a3;
      }

      .cls-9 {
        fill: #b7c8ea;
      }

      .cls-10 {
        fill: #6c88a2;
      }

      .cls-11 {
        filter: url(#drop-shadow-1);
      }

      .cls-12 {
        fill: #809db3;
      }

      .cls-13 {
        fill: #030303;
      }

      .cls-14 {
        fill: #ca7680;
      }

      .cls-15 {
        fill: #809eb3;
      }

      .cls-16 {
        fill: #9ab3c3;
      }

      .cls-17 {
        mix-blend-mode: multiply;
        opacity: .5;
      }

      .cls-18 {
        filter: url(#drop-shadow-2);
      }

      .cls-19 {
        fill: #c7d7f4;
      }

      .cls-20 {
        fill: #ffb900;
      }

      .cls-21 {
        fill: #c4616e;
      }

      .cls-22 {
        fill: #020102;
      }

      .cls-23 {
        fill: #050505;
      }

      .cls-24 {
        fill: none;
        stroke: #ffb900;
        stroke-miterlimit: 10;
      }

      .cls-25 {
        fill: #8f7905;
      }

      .cls-26 {
        fill: #e3e9f4;
      }

      .cls-27 {
        fill: #e2e8f3;
      }

      .cls-28 {
        fill: #d56876;
      }

      .cls-29 {
        fill: #070809;
      }

      .cls-30 {
        fill: #6b87a0;
      }
    </style>
    <filter id="drop-shadow-1" filterUnits="userSpaceOnUse">
      <feOffset dx="1" dy="1"/>
      <feGaussianBlur result="blur" stdDeviation="0"/>
      <feFlood flood-color="#000" flood-opacity=".75"/>
      <feComposite in2="blur" operator="in"/>
      <feComposite in="SourceGraphic"/>
    </filter>
    <filter id="drop-shadow-2" filterUnits="userSpaceOnUse">
      <feOffset dx="4" dy="8"/>
      <feGaussianBlur result="blur-2" stdDeviation="5"/>
      <feFlood flood-color="#000" flood-opacity=".3"/>
      <feComposite in2="blur-2" operator="in"/>
      <feComposite in="SourceGraphic"/>
    </filter>
  </defs>
  <g class="cls-6">
    <g id="botones">
      <g class="cls-11">
        <path class="cls-20" d="M64.56,9.03h2.32c1.25,0,2.16,.12,2.71,.35,.55,.23,.99,.61,1.31,1.12,.32,.52,.48,1.14,.48,1.86,0,.8-.21,1.47-.63,2-.42,.53-.99,.9-1.71,1.11-.42,.12-1.19,.18-2.3,.18v4.87h-2.19V9.03Zm2.19,4.49h.7c.55,0,.93-.04,1.14-.12,.21-.08,.38-.21,.5-.39,.12-.18,.18-.4,.18-.65,0-.44-.17-.77-.52-.97-.25-.15-.71-.23-1.39-.23h-.62v2.36Z"/>
        <path class="cls-20" d="M72.8,12.02h1.83v1.07c.2-.42,.46-.74,.79-.96s.69-.33,1.08-.33c.28,0,.56,.07,.87,.22l-.66,1.84c-.25-.12-.46-.19-.62-.19-.33,0-.61,.2-.83,.61s-.34,1.2-.34,2.39v.41s0,3.44,0,3.44h-2.12V12.02Z"/>
        <path class="cls-20" d="M82.41,11.8c.8,0,1.56,.2,2.26,.6,.71,.4,1.26,.95,1.65,1.63,.4,.69,.59,1.43,.59,2.23s-.2,1.55-.6,2.25c-.4,.7-.94,1.24-1.63,1.64s-1.45,.59-2.27,.59c-1.22,0-2.26-.43-3.12-1.3-.86-.87-1.29-1.92-1.29-3.16,0-1.33,.49-2.43,1.46-3.32,.85-.77,1.84-1.16,2.95-1.16Zm.04,2.01c-.66,0-1.21,.23-1.66,.69s-.66,1.05-.66,1.77,.22,1.34,.65,1.8c.44,.46,.99,.69,1.66,.69s1.22-.23,1.67-.7c.44-.46,.67-1.06,.67-1.79s-.22-1.32-.65-1.78c-.44-.46-.99-.68-1.67-.68Z"/>
        <path class="cls-20" d="M94.94,12.02h2.12v7.28c0,1.44-.29,2.49-.87,3.17-.78,.92-1.95,1.38-3.51,1.38-.83,0-1.53-.1-2.1-.31-.57-.21-1.05-.51-1.44-.92-.39-.4-.68-.89-.87-1.47h2.35c.21,.24,.48,.42,.8,.54,.33,.12,.72,.18,1.16,.18,.57,0,1.03-.09,1.38-.27,.35-.18,.59-.41,.74-.69,.14-.28,.21-.77,.21-1.45-.38,.38-.77,.64-1.18,.81-.41,.16-.88,.25-1.4,.25-1.14,0-2.1-.41-2.89-1.23-.79-.82-1.18-1.86-1.18-3.12,0-1.35,.42-2.43,1.25-3.25,.75-.74,1.66-1.11,2.7-1.11,.49,0,.95,.09,1.39,.27,.43,.18,.87,.48,1.31,.89v-.94Zm-2.21,1.77c-.67,0-1.23,.23-1.66,.68-.44,.45-.66,1.02-.66,1.7s.22,1.29,.67,1.74c.45,.45,1.01,.68,1.69,.68s1.21-.22,1.64-.66c.43-.44,.64-1.02,.64-1.74s-.22-1.28-.65-1.73c-.43-.44-.99-.66-1.67-.66Z"/>
        <path class="cls-20" d="M98.72,12.02h1.83v1.07c.2-.42,.46-.74,.79-.96s.69-.33,1.08-.33c.28,0,.56,.07,.87,.22l-.66,1.84c-.25-.12-.46-.19-.62-.19-.33,0-.61,.2-.83,.61s-.34,1.2-.34,2.39v.41s0,3.44,0,3.44h-2.12V12.02Z"/>
        <path class="cls-20" d="M110.61,12.02h2.13v8.5h-2.13v-.9c-.42,.4-.83,.68-1.25,.86-.42,.17-.87,.26-1.36,.26-1.1,0-2.05-.43-2.85-1.28s-1.2-1.91-1.2-3.18,.39-2.39,1.16-3.23c.78-.84,1.72-1.26,2.82-1.26,.51,0,.99,.1,1.44,.29,.45,.19,.86,.48,1.24,.87v-.94Zm-2.24,1.75c-.66,0-1.21,.23-1.64,.7-.44,.47-.65,1.06-.65,1.79s.22,1.34,.67,1.81c.44,.47,.99,.71,1.64,.71s1.23-.23,1.67-.7c.44-.47,.66-1.08,.66-1.83s-.22-1.34-.66-1.8c-.44-.46-1-.69-1.67-.69Z"/>
        <path class="cls-20" d="M114.88,12.02h2.13v.98c.36-.4,.77-.7,1.22-.9,.45-.2,.93-.3,1.46-.3s1.01,.13,1.44,.39c.43,.26,.77,.64,1.03,1.14,.34-.5,.75-.88,1.25-1.14,.49-.26,1.03-.39,1.61-.39s1.14,.14,1.59,.42c.46,.28,.79,.65,.99,1.1,.2,.45,.3,1.19,.3,2.21v4.98h-2.15v-4.31c0-.96-.12-1.62-.36-1.96-.24-.34-.6-.51-1.08-.51-.36,0-.69,.1-.98,.31-.29,.21-.5,.5-.64,.86s-.21,.96-.21,1.77v3.84h-2.15v-4.12c0-.76-.06-1.31-.17-1.65-.11-.34-.28-.59-.5-.76-.22-.17-.5-.25-.81-.25-.35,0-.68,.11-.97,.32s-.51,.51-.65,.89c-.14,.38-.22,.98-.22,1.8v3.78h-2.13V12.02Z"/>
        <path class="cls-20" d="M136.21,12.02h2.13v8.5h-2.13v-.9c-.42,.4-.83,.68-1.25,.86-.42,.17-.87,.26-1.36,.26-1.1,0-2.05-.43-2.85-1.28s-1.2-1.91-1.2-3.18,.39-2.39,1.16-3.23c.78-.84,1.72-1.26,2.82-1.26,.51,0,.99,.1,1.44,.29,.45,.19,.86,.48,1.24,.87v-.94Zm-2.24,1.75c-.66,0-1.21,.23-1.64,.7-.44,.47-.65,1.06-.65,1.79s.22,1.34,.67,1.81c.44,.47,.99,.71,1.64,.71s1.23-.23,1.67-.7c.44-.47,.66-1.08,.66-1.83s-.22-1.34-.66-1.8c-.44-.46-1-.69-1.67-.69Z"/>
        <path class="cls-20" d="M145.7,13.21l-1.32,1.32c-.54-.53-1.02-.8-1.46-.8-.24,0-.43,.05-.56,.15-.14,.1-.2,.23-.2,.38,0,.11,.04,.22,.13,.32,.09,.1,.3,.23,.64,.39l.78,.39c.82,.41,1.39,.82,1.7,1.24,.31,.42,.46,.92,.46,1.48,0,.76-.28,1.39-.83,1.89-.55,.51-1.3,.76-2.23,.76-1.24,0-2.23-.48-2.97-1.45l1.31-1.43c.25,.29,.54,.53,.88,.71s.63,.27,.89,.27c.28,0,.51-.07,.68-.2,.17-.14,.26-.29,.26-.47,0-.33-.31-.65-.93-.96l-.72-.36c-1.38-.69-2.06-1.56-2.06-2.6,0-.67,.26-1.25,.78-1.72,.52-.48,1.18-.71,1.99-.71,.55,0,1.07,.12,1.56,.36,.49,.24,.9,.59,1.24,1.04Z"/>
        <path class="cls-20" d="M158.29,8.74h2.13v11.78h-2.13v-.9c-.42,.4-.83,.68-1.25,.86-.42,.17-.87,.26-1.36,.26-1.1,0-2.05-.43-2.85-1.28s-1.2-1.91-1.2-3.18,.39-2.39,1.16-3.23c.78-.84,1.72-1.26,2.82-1.26,.51,0,.99,.1,1.44,.29,.45,.19,.86,.48,1.24,.87v-4.22Zm-2.24,5.03c-.66,0-1.21,.23-1.64,.7-.44,.47-.65,1.06-.65,1.79s.22,1.34,.67,1.81c.44,.47,.99,.71,1.64,.71s1.23-.23,1.67-.7c.44-.47,.66-1.08,.66-1.83s-.22-1.34-.66-1.8c-.44-.46-1-.69-1.67-.69Z"/>
        <path class="cls-20" d="M171.09,16.89h-6.85c.1,.6,.36,1.08,.79,1.44,.43,.36,.98,.54,1.64,.54,.8,0,1.48-.28,2.05-.84l1.8,.84c-.45,.64-.98,1.11-1.61,1.41s-1.37,.46-2.23,.46c-1.33,0-2.42-.42-3.26-1.26-.84-.84-1.26-1.89-1.26-3.16s.42-2.37,1.25-3.23c.84-.86,1.88-1.29,3.14-1.29,1.34,0,2.43,.43,3.27,1.29,.84,.86,1.26,1.99,1.26,3.39v.41Zm-2.14-1.68c-.14-.47-.42-.86-.83-1.16s-.9-.45-1.44-.45c-.59,0-1.12,.17-1.56,.5-.28,.21-.54,.58-.78,1.1h4.62Z"/>
        <path class="cls-20" d="M178.65,9.03h2.13l2.66,8.02,2.69-8.02h2.13l1.93,11.49h-2.12l-1.23-7.26-2.44,7.26h-1.93l-2.42-7.26-1.26,7.26h-2.13l1.99-11.49Z"/>
        <path class="cls-20" d="M197.97,12.02h2.13v8.5h-2.13v-.9c-.42,.4-.83,.68-1.25,.86-.42,.17-.87,.26-1.36,.26-1.1,0-2.05-.43-2.85-1.28s-1.2-1.91-1.2-3.18,.39-2.39,1.16-3.23c.78-.84,1.72-1.26,2.82-1.26,.51,0,.99,.1,1.44,.29,.45,.19,.86,.48,1.24,.87v-.94Zm-2.24,1.75c-.66,0-1.21,.23-1.64,.7-.44,.47-.65,1.06-.65,1.79s.22,1.34,.67,1.81c.44,.47,.99,.71,1.64,.71s1.23-.23,1.67-.7c.44-.47,.66-1.08,.66-1.83s-.22-1.34-.66-1.8c-.44-.46-1-.69-1.67-.69Z"/>
        <path class="cls-20" d="M202.26,12.02h2.13v.87c.48-.41,.92-.69,1.31-.85,.39-.16,.79-.24,1.21-.24,.84,0,1.56,.29,2.15,.88,.49,.5,.74,1.24,.74,2.22v5.62h-2.11v-3.72c0-1.01-.05-1.69-.14-2.02-.09-.33-.25-.59-.48-.76-.23-.17-.51-.26-.84-.26-.43,0-.8,.14-1.11,.43-.31,.29-.52,.69-.64,1.2-.06,.27-.09,.84-.09,1.72v3.41h-2.13V12.02Z"/>
        <path class="cls-20" d="M220.37,16.89h-6.85c.1,.6,.36,1.08,.79,1.44,.43,.36,.98,.54,1.64,.54,.8,0,1.48-.28,2.05-.84l1.8,.84c-.45,.64-.98,1.11-1.61,1.41s-1.37,.46-2.23,.46c-1.33,0-2.42-.42-3.26-1.26-.84-.84-1.26-1.89-1.26-3.16s.42-2.37,1.25-3.23c.84-.86,1.88-1.29,3.14-1.29,1.34,0,2.43,.43,3.27,1.29,.84,.86,1.26,1.99,1.26,3.39v.41Zm-2.14-1.68c-.14-.47-.42-.86-.83-1.16s-.9-.45-1.44-.45c-.59,0-1.12,.17-1.56,.5-.28,.21-.54,.58-.78,1.1h4.62Z"/>
        <path class="cls-20" d="M222.04,12.02h2.13v8.78c0,.81-.08,1.41-.24,1.81-.16,.4-.41,.7-.75,.92-.34,.21-.76,.32-1.24,.32-.43,0-.96-.11-1.59-.32v-1.68c.33,.16,.63,.24,.88,.24,.27,0,.47-.08,.61-.24,.14-.16,.2-.46,.2-.89V12.02Zm1.06-3.5c.38,0,.7,.14,.97,.41,.27,.27,.4,.6,.4,.98s-.13,.7-.4,.97c-.27,.27-.58,.41-.95,.41s-.7-.14-.97-.41c-.27-.27-.4-.61-.4-1s.13-.69,.39-.96c.26-.27,.58-.4,.96-.4Z"/>
        <path class="cls-20" d="M230.25,11.8c.8,0,1.56,.2,2.26,.6,.71,.4,1.26,.95,1.65,1.63,.4,.69,.59,1.43,.59,2.23s-.2,1.55-.6,2.25c-.4,.7-.94,1.24-1.63,1.64s-1.45,.59-2.27,.59c-1.22,0-2.26-.43-3.12-1.3-.86-.87-1.29-1.92-1.29-3.16,0-1.33,.49-2.43,1.46-3.32,.85-.77,1.84-1.16,2.95-1.16Zm.04,2.01c-.66,0-1.21,.23-1.66,.69s-.66,1.05-.66,1.77,.22,1.34,.65,1.8c.44,.46,.99,.69,1.66,.69s1.22-.23,1.67-.7c.44-.46,.67-1.06,.67-1.79s-.22-1.32-.65-1.78c-.44-.46-.99-.68-1.67-.68Z"/>
        <path class="cls-20" d="M65.68,28.23h2.13l2.66,8.02,2.69-8.02h2.13l1.93,11.49h-2.12l-1.23-7.26-2.44,7.26h-1.93l-2.42-7.26-1.26,7.26h-2.13l1.99-11.49Z"/>
        <path class="cls-20" d="M87.25,36.09h-6.85c.1,.6,.36,1.08,.79,1.44,.43,.36,.98,.54,1.64,.54,.8,0,1.48-.28,2.05-.84l1.8,.84c-.45,.64-.98,1.11-1.61,1.41s-1.37,.46-2.23,.46c-1.33,0-2.42-.42-3.26-1.26-.84-.84-1.26-1.89-1.26-3.16s.42-2.37,1.25-3.23c.84-.86,1.88-1.29,3.14-1.29,1.34,0,2.43,.43,3.27,1.29,.84,.86,1.26,1.99,1.26,3.39v.41Zm-2.14-1.68c-.14-.47-.42-.86-.83-1.16s-.9-.45-1.44-.45c-.59,0-1.12,.17-1.56,.5-.28,.21-.54,.58-.78,1.1h4.62Z"/>
        <path class="cls-20" d="M95.25,27.94h2.13v11.78h-2.13v-.9c-.42,.4-.83,.68-1.25,.86-.42,.17-.87,.26-1.36,.26-1.1,0-2.05-.43-2.85-1.28s-1.2-1.91-1.2-3.18,.39-2.39,1.16-3.23c.78-.84,1.72-1.26,2.82-1.26,.51,0,.99,.1,1.44,.29,.45,.19,.86,.48,1.24,.87v-4.22Zm-2.24,5.03c-.66,0-1.21,.23-1.64,.7-.44,.47-.65,1.06-.65,1.79s.22,1.34,.67,1.81c.44,.47,.99,.71,1.64,.71s1.23-.23,1.67-.7c.44-.47,.66-1.08,.66-1.83s-.22-1.34-.66-1.8c-.44-.46-1-.69-1.67-.69Z"/>
        <path class="cls-20" d="M100.37,27.72c.37,0,.69,.14,.96,.41,.27,.27,.4,.6,.4,.98s-.13,.7-.4,.97c-.26,.27-.58,.4-.95,.4s-.7-.14-.97-.41c-.27-.27-.4-.61-.4-1s.13-.7,.4-.96c.26-.27,.58-.4,.96-.4Zm-1.07,3.5h2.13v8.5h-2.13v-8.5Z"/>
        <path class="cls-20" d="M107.37,31c.8,0,1.56,.2,2.26,.6,.71,.4,1.26,.95,1.65,1.63,.4,.69,.59,1.43,.59,2.23s-.2,1.55-.6,2.25c-.4,.7-.94,1.24-1.63,1.64s-1.45,.59-2.27,.59c-1.22,0-2.26-.43-3.12-1.3-.86-.87-1.29-1.92-1.29-3.16,0-1.33,.49-2.43,1.46-3.32,.85-.77,1.84-1.16,2.95-1.16Zm.04,2.01c-.66,0-1.21,.23-1.66,.69s-.66,1.05-.66,1.77,.22,1.34,.65,1.8c.44,.46,.99,.69,1.66,.69s1.22-.23,1.67-.7c.44-.46,.67-1.06,.67-1.79s-.22-1.32-.65-1.78c-.44-.46-.99-.68-1.67-.68Z"/>
        <path class="cls-20" d="M118.82,32.41l-1.32,1.32c-.54-.53-1.02-.8-1.46-.8-.24,0-.43,.05-.56,.15-.14,.1-.2,.23-.2,.38,0,.11,.04,.22,.13,.32,.09,.1,.3,.23,.64,.39l.78,.39c.82,.41,1.39,.82,1.7,1.24,.31,.42,.46,.92,.46,1.48,0,.76-.28,1.39-.83,1.89-.55,.51-1.3,.76-2.23,.76-1.24,0-2.23-.48-2.97-1.45l1.31-1.43c.25,.29,.54,.53,.88,.71s.63,.27,.89,.27c.28,0,.51-.07,.68-.2,.17-.14,.26-.29,.26-.47,0-.33-.31-.65-.93-.96l-.72-.36c-1.38-.69-2.06-1.56-2.06-2.6,0-.67,.26-1.25,.78-1.72,.52-.48,1.18-.71,1.99-.71,.55,0,1.07,.12,1.56,.36,.49,.24,.9,.59,1.24,1.04Z"/>
        <path class="cls-20" d="M128.87,28.23h2.22l4.42,11.49h-2.27l-.9-2.37h-4.69l-.94,2.37h-2.27l4.43-11.49Zm1.12,3.05l-1.54,3.95h3.07l-1.53-3.95Z"/>
        <path class="cls-20" d="M139.09,27.94v4.22c.39-.39,.8-.67,1.25-.87,.45-.19,.93-.29,1.44-.29,1.11,0,2.05,.42,2.83,1.26,.78,.84,1.16,1.91,1.16,3.23s-.4,2.32-1.2,3.18c-.8,.85-1.75,1.28-2.85,1.28-.49,0-.95-.09-1.37-.26s-.84-.46-1.26-.86v.9h-2.12v-11.78h2.12Zm2.24,5.03c-.67,0-1.23,.23-1.67,.69-.44,.46-.66,1.06-.66,1.8s.22,1.37,.66,1.83c.44,.47,1,.7,1.67,.7s1.2-.24,1.64-.71c.45-.47,.67-1.08,.67-1.81s-.22-1.33-.66-1.79c-.44-.47-.99-.7-1.66-.7Z"/>
        <path class="cls-20" d="M148.36,27.72c.37,0,.69,.14,.96,.41,.27,.27,.4,.6,.4,.98s-.13,.7-.4,.97c-.26,.27-.58,.4-.95,.4s-.7-.14-.97-.41c-.27-.27-.4-.61-.4-1s.13-.7,.4-.96c.26-.27,.58-.4,.96-.4Zm-1.07,3.5h2.13v8.5h-2.13v-8.5Z"/>
        <path class="cls-20" d="M155.36,31c.8,0,1.56,.2,2.26,.6,.71,.4,1.26,.95,1.65,1.63,.4,.69,.59,1.43,.59,2.23s-.2,1.55-.6,2.25c-.4,.7-.94,1.24-1.63,1.64s-1.45,.59-2.27,.59c-1.22,0-2.26-.43-3.12-1.3-.86-.87-1.29-1.92-1.29-3.16,0-1.33,.49-2.43,1.46-3.32,.85-.77,1.84-1.16,2.95-1.16Zm.04,2.01c-.66,0-1.21,.23-1.66,.69s-.66,1.05-.66,1.77,.22,1.34,.65,1.8c.44,.46,.99,.69,1.66,.69s1.22-.23,1.67-.7c.44-.46,.67-1.06,.67-1.79s-.22-1.32-.65-1.78c-.44-.46-.99-.68-1.67-.68Zm.36-6.41h2.52l-2.86,3.06h-1.53l1.87-3.06Z"/>
        <path class="cls-20" d="M161.87,28.09h2.13v3.13h1.27v1.84h-1.27v6.66h-2.13v-6.66h-1.09v-1.84h1.09v-3.13Z"/>
        <path class="cls-20" d="M167.24,27.72c.37,0,.69,.14,.96,.41,.27,.27,.4,.6,.4,.98s-.13,.7-.4,.97c-.26,.27-.58,.4-.95,.4s-.7-.14-.97-.41c-.27-.27-.4-.61-.4-1s.13-.7,.4-.96c.26-.27,.58-.4,.96-.4Zm-1.07,3.5h2.13v8.5h-2.13v-8.5Z"/>
        <path class="cls-20" d="M178.56,32.94l-1.78,.98c-.33-.35-.66-.59-.99-.73-.33-.14-.71-.2-1.15-.2-.8,0-1.44,.24-1.94,.71-.49,.48-.74,1.09-.74,1.83s.24,1.31,.71,1.77c.47,.46,1.1,.69,1.87,.69,.95,0,1.7-.33,2.23-.98l1.68,1.15c-.91,1.19-2.2,1.78-3.86,1.78-1.5,0-2.67-.44-3.51-1.33-.85-.89-1.27-1.92-1.27-3.11,0-.82,.21-1.58,.62-2.27,.41-.69,.99-1.24,1.72-1.63,.74-.4,1.56-.59,2.47-.59,.84,0,1.6,.17,2.27,.5s1.22,.81,1.65,1.43Z"/>
        <path class="cls-20" d="M184.48,31c.8,0,1.56,.2,2.26,.6,.71,.4,1.26,.95,1.65,1.63,.4,.69,.59,1.43,.59,2.23s-.2,1.55-.6,2.25c-.4,.7-.94,1.24-1.63,1.64s-1.45,.59-2.27,.59c-1.22,0-2.26-.43-3.12-1.3-.86-.87-1.29-1.92-1.29-3.16,0-1.33,.49-2.43,1.46-3.32,.85-.77,1.84-1.16,2.95-1.16Zm.04,2.01c-.66,0-1.21,.23-1.66,.69s-.66,1.05-.66,1.77,.22,1.34,.65,1.8c.44,.46,.99,.69,1.66,.69s1.22-.23,1.67-.7c.44-.46,.67-1.06,.67-1.79s-.22-1.32-.65-1.78c-.44-.46-.99-.68-1.67-.68Z"/>
        <path class="cls-20" d="M194.26,31.22h2.18l2.21,5.33,2.44-5.33h2.19l-5.32,11.61h-2.2l1.75-3.74-3.23-7.87Z"/>
        <path class="cls-20" d="M209.2,39.72v-11.49h1.81c1.05,0,1.81,.07,2.3,.2,.69,.18,1.24,.52,1.64,1.02,.41,.5,.61,1.08,.61,1.75,0,.44-.09,.83-.28,1.19-.19,.36-.49,.69-.9,1,.7,.33,1.21,.74,1.53,1.23,.32,.49,.48,1.07,.48,1.75s-.17,1.23-.5,1.77c-.33,.53-.76,.93-1.29,1.19-.53,.26-1.25,.39-2.18,.39h-3.22Zm2.19-9.41v2.42h.48c.53,0,.93-.11,1.19-.34,.26-.22,.39-.53,.39-.91,0-.36-.12-.64-.37-.86s-.62-.32-1.12-.32h-.56Zm0,4.38v2.95h.55c.91,0,1.52-.11,1.84-.34,.32-.23,.47-.56,.47-1,0-.49-.19-.89-.56-1.17-.37-.29-.99-.43-1.85-.43h-.45Z"/>
        <path class="cls-20" d="M219.07,27.72c.37,0,.69,.14,.96,.41,.27,.27,.4,.6,.4,.98s-.13,.7-.4,.97c-.26,.27-.58,.4-.95,.4s-.7-.14-.97-.41c-.27-.27-.4-.61-.4-1s.13-.7,.4-.96c.26-.27,.58-.4,.96-.4Zm-1.07,3.5h2.13v8.5h-2.13v-8.5Z"/>
        <path class="cls-20" d="M226.07,31c.8,0,1.56,.2,2.26,.6,.71,.4,1.26,.95,1.65,1.63,.4,.69,.59,1.43,.59,2.23s-.2,1.55-.6,2.25c-.4,.7-.94,1.24-1.63,1.64s-1.45,.59-2.27,.59c-1.22,0-2.26-.43-3.12-1.3-.86-.87-1.29-1.92-1.29-3.16,0-1.33,.49-2.43,1.46-3.32,.85-.77,1.84-1.16,2.95-1.16Zm.04,2.01c-.66,0-1.21,.23-1.66,.69s-.66,1.05-.66,1.77,.22,1.34,.65,1.8c.44,.46,.99,.69,1.66,.69s1.22-.23,1.67-.7c.44-.46,.67-1.06,.67-1.79s-.22-1.32-.65-1.78c-.44-.46-.99-.68-1.67-.68Zm.36-6.41h2.52l-2.86,3.06h-1.53l1.87-3.06Z"/>
        <path class="cls-20" d="M232.58,28.09h2.13v3.13h1.27v1.84h-1.27v6.66h-2.13v-6.66h-1.09v-1.84h1.09v-3.13Z"/>
        <path class="cls-20" d="M237.95,27.72c.37,0,.69,.14,.96,.41,.27,.27,.4,.6,.4,.98s-.13,.7-.4,.97c-.26,.27-.58,.4-.95,.4s-.7-.14-.97-.41c-.27-.27-.4-.61-.4-1s.13-.7,.4-.96c.26-.27,.58-.4,.96-.4Zm-1.07,3.5h2.13v8.5h-2.13v-8.5Z"/>
        <path class="cls-20" d="M249.27,32.94l-1.78,.98c-.33-.35-.66-.59-.99-.73-.33-.14-.71-.2-1.15-.2-.8,0-1.44,.24-1.94,.71-.49,.48-.74,1.09-.74,1.83s.24,1.31,.71,1.77c.47,.46,1.1,.69,1.87,.69,.95,0,1.7-.33,2.23-.98l1.68,1.15c-.91,1.19-2.2,1.78-3.86,1.78-1.5,0-2.67-.44-3.51-1.33-.85-.89-1.27-1.92-1.27-3.11,0-.82,.21-1.58,.62-2.27,.41-.69,.99-1.24,1.72-1.63,.74-.4,1.56-.59,2.47-.59,.84,0,1.6,.17,2.27,.5s1.22,.81,1.65,1.43Z"/>
        <path class="cls-20" d="M255.19,31c.8,0,1.56,.2,2.26,.6,.71,.4,1.26,.95,1.65,1.63,.4,.69,.59,1.43,.59,2.23s-.2,1.55-.6,2.25c-.4,.7-.94,1.24-1.63,1.64s-1.45,.59-2.27,.59c-1.22,0-2.26-.43-3.12-1.3-.86-.87-1.29-1.92-1.29-3.16,0-1.33,.49-2.43,1.46-3.32,.85-.77,1.84-1.16,2.95-1.16Zm.04,2.01c-.66,0-1.21,.23-1.66,.69s-.66,1.05-.66,1.77,.22,1.34,.65,1.8c.44,.46,.99,.69,1.66,.69s1.22-.23,1.67-.7c.44-.46,.67-1.06,.67-1.79s-.22-1.32-.65-1.78c-.44-.46-.99-.68-1.67-.68Z"/>
      </g>
      <g>
        <g class="cls-18">
          <ellipse class="cls-25" cx="29" cy="25.49" rx="17.83" ry="18.41"/>
          <circle class="cls-20" cx="29" cy="24.56" r="17.38" transform="translate(-8.87 27.7) rotate(-45)"/>
          <g class="cls-17">
            <circle class="cls-5" cx="29" cy="25.57" r="13.48"/>
          </g>
          <circle class="cls-2" cx="29" cy="24.56" r="15.89"/>
          <circle class="cls-24" cx="29" cy="24.56" r="13.98"/>
        </g>
        <g>
          <g>
            <path class="cls-13" d="M29.75,32.12c-.04,.2-.16,.29-.36,.29-2.73,0-5.46,0-8.19,0-1.22,0-2.17-.96-2.18-2.18,0-3.89,0-7.79,0-11.68,0-.86,.41-1.51,1.16-1.92,.74-.39,1.48-.35,2.21,.08,.19,.11,.27,.26,.27,.48,0,.93,0,1.85,0,2.78,0,.14,.02,.19,.18,.19,3.87,0,7.73,0,11.6,0,.16,0,.18-.05,.18-.19,0-.82,0-1.64,0-2.46,0-.69,.45-1.13,1.14-1.14,.3,0,.61,0,.91,0,.61,0,1.08,.47,1.08,1.08,0,.83,0,1.67,0,2.5,0,.16,.03,.22,.2,.21,.32-.02,.65,0,.97,0,.18,0,.32,.05,.42,.19v11.9c-.12,.14-.27,.17-.45,.17-2.66,0-5.32,0-7.98,0-.26,0-.38-.08-.41-.28,.08-.26,.15-.31,.45-.31,2.52,0,5.04,0,7.55,0,.19,0,.25-.03,.25-.24,0-3.4,0-6.81,0-10.21,0-.2,.09-.48-.04-.59-.15-.11-.42-.04-.63-.02q-.32-.02-.32,.29c0,.59,0,1.18,0,1.77,0,.21-.07,.34-.28,.38-.25-.05-.31-.13-.31-.39,0-1.16,0-2.32,0-3.48,0-.14-.03-.21-.18-.19-.16,.02-.33,0-.49,.01-.35,0-.7,0-1.05-.01-.18,0-.23,.05-.23,.23,0,2.81,0,5.62,0,8.43,0,.03,0,.07,0,.1-.01,.09,.03,.13,.12,.13,.38,0,.77,0,1.15-.01,.16,0,.32,0,.47,.01,.17,.02,.2-.05,.2-.21,0-1.15,0-2.31,0-3.46,0-.26,.07-.35,.31-.39,.21,.04,.28,.18,.28,.39,0,1.29,0,2.59,0,3.88,0,.12-.03,.22-.08,.32-.4,.77-.79,1.55-1.18,2.33-.05,.1-.1,.18-.21,.23-.23,.03-.34-.09-.44-.28-.36-.74-.74-1.47-1.12-2.21-.08-.15-.12-.3-.12-.47,0-2.4,0-4.8,0-7.2,0-.15-.02-.2-.19-.2-3.86,0-7.72,0-11.58,0-.15,0-.19,.03-.19,.19,0,.65,0,1.31,0,1.96,0,.27-.05,.34-.3,.42-.25-.08-.3-.14-.3-.42,0-.44,0-.87,0-1.31,0-1.4,0-2.81,0-4.21,0-.09,.02-.18-.1-.23-.21-.09-.41-.18-.64-.17-.14-.02-.28-.01-.41,.02-.77,.16-1.29,.79-1.29,1.58,0,3.33,0,6.66,0,9.99,0,.04-.02,.08,.03,.12,.48-.48,1.08-.69,1.75-.66,.22,.03,.43,.09,.66,.15v-.23c0-1.17,0-2.33,0-3.5,0-.28,.04-.33,.3-.41,.21,.04,.3,.17,.3,.38,0,1.41,0,2.82,0,4.22,0,.13-.03,.25-.15,.32-.13,.07-.25,.03-.37-.05-.32-.23-.68-.32-1.07-.28-.61,.07-1.05,.38-1.3,.93-.24,.55-.2,1.08,.16,1.57,.04,.05,.07,.11,.12,.16,.35,.38,.79,.52,1.29,.52,2.67,0,5.33,0,8,0,.29,0,.36,.06,.42,.31Zm6.72-13.6c.19,.03,.38,0,.57,.02,.09,0,.11-.04,.11-.12,0-.34,0-.67,0-1.01,0-.26-.2-.44-.46-.45-.11,0-.22,0-.33,0-.23,0-.46-.01-.69,0-.26,0-.45,.19-.46,.45-.01,.34,0,.67,0,1.01,0,.08,.02,.12,.11,.12,.39,0,.77,0,1.16-.01Zm.49,10.08c-.51,0-.98,0-1.46,0-.07,0-.12,0-.07,.1,.25,.48,.49,.96,.74,1.46,.27-.53,.52-1.02,.79-1.56Z"/>
            <path class="cls-19" d="M29.75,32.12c-.06-.25-.14-.31-.42-.31-2.67,0-5.33,0-8,0-.51,0-.95-.15-1.29-.52-.04-.05-.08-.1-.12-.16,.15-.03,.29,.03,.43,.03,5.31,0,10.62,0,15.92,0,.3,0,.61,0,.91,0,.52,0,.87-.31,.87-.74,0-3.22,0-6.45,0-9.67,.22-.01,.49-.09,.63,.02,.13,.1,.04,.38,.04,.59,0,3.4,0,6.81,0,10.21,0,.21-.06,.24-.25,.24-2.52,0-5.04,0-7.55,0-.3,0-.36,.05-.45,.31-.25,0-.49,0-.74,0Z"/>
            <path class="cls-27" d="M36.28,31.17c-5.31,0-10.62,0-15.92,0-.15,0-.28-.07-.43-.03-.36-.49-.4-1.03-.16-1.57,.25-.56,.7-.87,1.3-.93,.39-.04,.75,.05,1.07,.28,.12,.08,.24,.12,.37,.05,.13-.07,.15-.19,.15-.32,0-1.41,0-2.82,0-4.22,0-.21-.09-.34-.3-.38,0-.24,0-.49,0-.73,.25-.08,.3-.15,.3-.42,0-.65,0-1.31,0-1.96,0-.15,.04-.19,.19-.19,3.86,0,7.72,0,11.58,0,.17,0,.19,.05,.19,.2,0,2.4,0,4.8,0,7.2,0,.17,.04,.32,.12,.47,.38,.73,.75,1.47,1.12,2.21,.1,.19,.21,.31,.44,.28,0,.02,0,.05,0,.07Zm-10.64-5.49c.54,0,1.08,0,1.62,0,.29,0,.39-.09,.39-.38,0-1.08,0-2.17,0-3.25,0-.28-.1-.38-.38-.38-1.08,0-2.15,0-3.23,0-.3,0-.39,.1-.39,.4,0,1.07,0,2.14,0,3.21,0,.31,.09,.4,.41,.4,.53,0,1.06,0,1.58,0Zm5.35-3.72c-.36,0-.71,0-1.07,0-.31,0-.62,0-.93,0-.19,0-.31,.12-.32,.28,0,.17,.12,.3,.32,.31,.05,0,.09,0,.14,0,1.08,0,2.15,0,3.23,0,.21,0,.42,0,.63,0,.14,0,.25-.08,.29-.23,.03-.13,0-.23-.12-.31-.08-.06-.17-.05-.27-.05-.63,0-1.27,0-1.9,0Zm0,1.42c-.63,0-1.25,0-1.88,0-.07,0-.13,0-.2,0-.16,.03-.24,.14-.24,.29,0,.15,.09,.25,.24,.28,.06,.01,.12,0,.18,0,1.26,0,2.52,0,3.78,0,.07,0,.13,0,.2-.01,.14-.03,.21-.13,.22-.27,0-.15-.07-.26-.22-.29-.06-.02-.13-.01-.2-.01-.63,0-1.25,0-1.88,0Zm-.85,2.01c.38,0,.75,0,1.13,0,.22,0,.34-.11,.34-.3,0-.18-.13-.3-.35-.3-.75,0-1.49,0-2.24,0-.22,0-.35,.11-.35,.29,0,.18,.13,.3,.36,.3,.37,0,.74,0,1.11,0Z"/>
            <path class="cls-19" d="M21.4,28.03c-.68-.03-1.27,.17-1.75,.66-.05-.04-.03-.08-.03-.12,0-3.33,0-6.66,0-9.99,0-.8,.52-1.42,1.29-1.58,.14-.03,.27-.04,.41-.02,0,.15,.08,.27,.08,.42,0,3.54,0,7.09,0,10.63Z"/>
            <path class="cls-9" d="M21.4,28.03c0-3.54,0-7.09,0-10.63,0-.15-.08-.28-.08-.42,.23-.01,.44,.08,.64,.17,.11,.05,.1,.14,.1,.23,0,1.4,0,2.81,0,4.21,0,.44,0,.87,0,1.31,0,.28,.04,.33,.3,.42,0,.24,0,.49,0,.73-.25,.08-.3,.14-.3,.41,0,1.17,0,2.33,0,3.5v.23c-.23-.07-.44-.13-.66-.15Z"/>
            <path class="cls-28" d="M36.47,28c-.38,0-.77,0-1.15,.01-.09,0-.13-.03-.12-.13,0-.03,0-.07,0-.1,0-2.81,0-5.62,0-8.43,0-.18,.05-.24,.23-.23,.35,.02,.7,.01,1.05,.01-.01,.4,.02,.8-.02,1.2-.08-.14-.19-.22-.36-.17-.18,.05-.22,.18-.22,.35,0,2.03,0,4.07,0,6.1,0,.17,.04,.3,.22,.35,.17,.05,.28-.03,.36-.17,.05,.4,0,.8,.02,1.2Z"/>
            <path class="cls-21" d="M36.47,28c-.01-.4,.02-.8-.02-1.2,0-.08,.02-.16,.02-.24,0-2,0-3.99,0-5.99,0-.08-.01-.16-.02-.24,.04-.4,0-.8,.02-1.2,.16,0,.33,0,.49-.01,.16-.01,.18,.05,.18,.19,0,1.16,0,2.32,0,3.48,0,.26,.07,.34,.31,.39,0,.25,0,.5,0,.74-.25,.05-.31,.13-.31,.39,0,1.15,0,2.31,0,3.46,0,.16-.03,.23-.2,.21-.16-.02-.32,0-.47-.01Z"/>
            <path class="cls-26" d="M37.46,23.95c0-.25,0-.5,0-.74,.21-.04,.28-.18,.28-.38,0-.59,0-1.18,0-1.77q0-.31,.32-.29c0,3.22,0,6.45,0,9.67,0,.43-.36,.74-.87,.74-.3,0-.61,0-.91,0,0-.02,0-.05,0-.07,.1-.05,.16-.13,.21-.23,.39-.78,.79-1.55,1.18-2.33,.05-.1,.08-.2,.08-.32,0-1.29,0-2.59,0-3.88,0-.21-.07-.35-.28-.39Z"/>
            <path class="cls-3" d="M36.47,18.53c-.39,0-.77,0-1.16,.01-.09,0-.11-.04-.11-.12,0-.34,0-.67,0-1.01,0-.26,.2-.44,.46-.45,.23,0,.46,0,.69,0,.03,.15,.12,.27,.12,.43,0,.37,0,.75,0,1.12Z"/>
            <path class="cls-4" d="M36.96,28.61c-.27,.53-.52,1.03-.79,1.56-.25-.5-.5-.98-.74-1.46-.05-.1,0-.1,.07-.1,.47,0,.95,0,1.46,0Z"/>
            <path class="cls-14" d="M36.47,18.53c0-.37,0-.75,0-1.12,0-.16-.09-.29-.12-.43,.11,0,.22-.01,.33,0,.25,.01,.45,.2,.46,.45,.01,.33,0,.67,0,1.01,0,.08-.02,.12-.11,.12-.19-.01-.38,.02-.57-.02Z"/>
            <path class="cls-29" d="M25.63,25.68c-.53,0-1.06,0-1.58,0-.31,0-.41-.09-.41-.4,0-1.07,0-2.14,0-3.21,0-.3,.09-.4,.39-.4,1.08,0,2.15,0,3.23,0,.29,0,.38,.09,.38,.38,0,1.08,0,2.17,0,3.25,0,.28-.1,.37-.39,.38-.54,0-1.08,0-1.62,0Zm0-.6c.42,0,.85,0,1.27,0,.12,0,.16-.03,.16-.15,0-.83,0-1.67,0-2.5,0-.11-.01-.16-.15-.16-.84,0-1.68,0-2.52,0-.11,0-.15,.03-.15,.14,0,.84,0,1.68,0,2.52,0,.13,.04,.15,.16,.15,.41,0,.82,0,1.23,0Z"/>
            <path class="cls-23" d="M30.98,21.96c.63,0,1.27,0,1.9,0,.09,0,.19,0,.27,.05,.11,.08,.15,.18,.12,.31-.03,.15-.14,.22-.29,.23-.21,0-.42,0-.63,0-1.08,0-2.15,0-3.23,0-.05,0-.09,0-.14,0-.2-.01-.32-.14-.32-.31,0-.16,.13-.28,.32-.28,.31,0,.62,0,.93,0,.36,0,.71,0,1.07,0Z"/>
            <path class="cls-22" d="M30.98,23.38c.63,0,1.25,0,1.88,0,.07,0,.13,0,.2,.01,.15,.04,.22,.14,.22,.29,0,.14-.08,.24-.22,.27-.06,.01-.13,.01-.2,.01-1.26,0-2.52,0-3.78,0-.06,0-.12,0-.18,0-.15-.03-.23-.13-.24-.28,0-.16,.08-.26,.24-.29,.06-.01,.13,0,.2,0,.63,0,1.25,0,1.88,0Z"/>
            <path class="cls-23" d="M30.13,25.39c-.37,0-.74,0-1.11,0-.23,0-.36-.12-.36-.3,0-.18,.14-.29,.35-.29,.75,0,1.49,0,2.24,0,.22,0,.34,.11,.35,.3,0,.19-.12,.3-.34,.3-.38,0-.75,0-1.13,0Z"/>
            <path class="cls-22" d="M36.45,20.34c0,.08,.02,.16,.02,.24,0,2,0,3.99,0,5.99,0,.08-.01,.16-.02,.24-.08,.14-.19,.22-.36,.17-.18-.05-.22-.19-.22-.35,0-2.03,0-4.07,0-6.1,0-.17,.04-.3,.22-.35,.17-.05,.28,.04,.36,.17Z"/>
            <path class="cls-19" d="M25.63,25.08c-.41,0-.82,0-1.23,0-.12,0-.16-.02-.16-.15,0-.84,0-1.68,0-2.52,0-.11,.04-.14,.15-.14,.84,0,1.68,0,2.52,0,.13,0,.15,.05,.15,.16,0,.83,0,1.67,0,2.5,0,.12-.04,.16-.16,.15-.42,0-.85,0-1.27,0Zm-.71-1.7c-.12,0-.21,.07-.26,.18-.05,.12-.03,.22,.05,.31,.15,.16,.3,.31,.46,.46,.17,.16,.31,.16,.48,0,.3-.3,.6-.59,.89-.89,.16-.16,.17-.32,.04-.45-.13-.13-.3-.12-.45,.03-.2,.2-.41,.39-.6,.6-.1,.11-.15,.1-.24,0-.1-.11-.19-.24-.37-.24Z"/>
            <path class="cls-13" d="M24.91,23.38c.18,0,.27,.13,.37,.24,.09,.1,.15,.11,.24,0,.19-.21,.4-.41,.6-.6,.16-.15,.32-.16,.45-.03,.13,.13,.12,.29-.04,.45-.3,.3-.59,.6-.89,.89-.17,.16-.31,.16-.48,0-.16-.15-.31-.3-.46-.46-.08-.09-.11-.2-.05-.31,.05-.11,.14-.17,.26-.18Z"/>
          </g>
          <g>
            <path class="cls-7" d="M30.42,31.11c-.03,.13-.07,.17-.21,.17-1.56,0-3.13,0-4.69,0-.09,0-.15-.04-.2-.12-.17-.33-.35-.65-.52-.98,0,0,0-.02-.02-.02,0-.03,0-.06,0-.1,.18-.35,.35-.69,.53-1.04,.03-.05,.06-.09,.1-.13,.17-.14,.34-.28,.5-.42,.05-.05,.11-.07,.18-.06,.19,.02,.38,.03,.56,.05,.06,0,.1,0,.14-.05,.33-.3,.66-.59,1-.89,.09-.08,.14-.09,.25-.02,.08,.05,.17,.09,.25,.15,.05,.03,.08,.03,.11-.02,.22-.35,.45-.69,.67-1.04,.04-.07,.1-.11,.18-.13,.45-.13,.91-.27,1.36-.4,.06-.02,.12-.02,.18,0,.37,.12,.75,.24,1.12,.36,.06,.02,.1,.05,.13,.11,.2,.35,.39,.7,.59,1.04,.04,.06,.04,.12,.02,.19-.1,.27-.2,.54-.3,.81-.02,.05-.02,.08,.03,.12,.2,.16,.39,.33,.58,.5,.06,.05,.09,.11,.09,.19,0,.37,0,.74,0,1.11,0,.07-.02,.13-.08,.18-.2,.18-.39,.37-.59,.56-.05,.05-.1,.07-.17,.07-.16,0-.32,0-.48,0-.13,0-.17-.04-.2-.16,.03-.12,.08-.16,.2-.16,.13,0,.26,0,.4,0,.04,0,.07,0,.1-.04,.15-.15,.3-.29,.46-.43,.03-.03,.04-.05,.04-.09,0-.26,0-.52,0-.77,0-.06-.02-.07-.07-.05-.47,.14-.95,.27-1.42,.41-.04,.01-.07,.03-.1,.05-.38,.29-.75,.58-1.13,.87-.02,.01-.04,.02-.04,.05,.08,0,.16,0,.23,0,.13,0,.18,.03,.22,.16Zm-1.2-1.89c.22-.17,.42-.36,.62-.54,.02-.02,.03-.03,0-.05-.12-.11-.24-.23-.36-.34-.02,.01-.02,.03-.03,.05-.07,.25-.15,.51-.22,.76-.01,.04-.04,.08-.02,.13,0,0,0,0-.01,0,0,0,0,0,0,0,0,0,0,0,0-.01Zm-.05-1.05s-.03-.03-.05-.03c-.17,0-.34,0-.52,0-.08,0-.15-.02-.22-.06-.12-.08-.25-.15-.37-.22-.04-.03-.07-.03-.11,0-.27,.24-.55,.49-.82,.73-.04,.03-.04,.05,0,.09,.12,.13,.23,.27,.35,.41,.02,.03,.04,.04,.08,.05,.41,.12,.81,.24,1.22,.37,.05,.02,.07,0,.08-.04,.12-.42,.24-.84,.36-1.26,0-.02,0-.03,.01-.04Zm1.73,1.61s0-.02-.01-.03c-.18-.34-.35-.69-.53-1.03-.03-.05-.04-.03-.07,0-.39,.34-.78,.69-1.17,1.03-.03,.03-.03,.05-.02,.08,.13,.33,.25,.66,.38,.99,.02,.04,.03,.06,.07,.02,.44-.34,.88-.68,1.31-1.02,.01-.01,.03-.02,.03-.04Zm-3.09-.21s-.01,.07-.02,.1c-.09,.4-.18,.8-.27,1.19-.01,.05-.03,.09,.05,.09,.52,0,1.03,0,1.55,0,.06,0,.07-.01,.05-.07-.13-.32-.25-.65-.37-.97-.01-.03-.02-.05-.06-.06-.31-.09-.62-.19-.93-.28Zm2.74-3.16s-.02,0-.02,0c-.38,.11-.76,.23-1.13,.34-.03,0-.05,.03-.07,.06-.21,.32-.41,.64-.62,.95,0,.01-.03,.03-.02,.05,.21,0,.43,0,.64,0,.02,0,.04,0,.06-.01,.37-.15,.73-.3,1.1-.45,.04-.01,.05-.03,.05-.07,0-.29,0-.57,0-.86Zm-.84,1.61s.03,.04,.04,.06c.1,.09,.19,.18,.29,.27,.08,.08,.09,.08,.17,0,.07-.07,.16-.1,.26-.1,.4,0,.8,0,1.19,0,.14,0,.26,0,.36,.12,.03,.03,.05,.03,.06-.02,.06-.16,.12-.33,.18-.49,.02-.04,0-.06-.04-.07-.41-.05-.82-.1-1.22-.16-.2-.03-.37,0-.55,.08-.25,.11-.5,.21-.75,.31Zm2.85,1.23c-.26-.23-.52-.45-.77-.66-.02-.02-.04-.02-.07-.02-.34,0-.67,0-1.01,0-.05,0-.07,0-.04,.06,.17,.32,.33,.65,.49,.97,.02,.03,.04,.05,.07,.04,.43-.13,.87-.25,1.31-.38Zm-6.08,1.69c.21,0,.41,0,.62,0,.05,0,.07,0,.08-.06,.07-.34,.15-.67,.23-1.01,.01-.06,0-.06-.06-.05-.3,.08-.61,.16-.91,.24-.04,0-.06,.03-.08,.06-.17,.25-.35,.5-.52,.76-.01,.01-.03,.04-.02,.05,0,.03,.04,.01,.06,.01,.2,0,.4,0,.61,0Zm.88-1.45c-.2-.24-.39-.46-.58-.69-.02-.02-.04-.03-.07-.03-.18-.02-.36-.03-.55-.05-.03,0-.06,0-.09,.03-.1,.09-.21,.18-.32,.26-.03,.03-.04,.04,0,.08,.19,.21,.38,.42,.57,.63,.02,.02,.04,.03,.07,.02,.32-.09,.64-.17,.97-.26Zm4.86-2.04c-.15-.26-.28-.5-.42-.74-.01-.02-.04-.03-.06-.04-.27-.09-.54-.17-.81-.26-.05-.02-.06,0-.06,.05,0,.25,0,.5,0,.75,0,.05,.02,.07,.07,.07,.27,.03,.54,.07,.81,.1,.15,.02,.3,.04,.47,.06Zm-6.7,1.86c-.13,.25-.25,.49-.37,.74-.02,.03,0,.05,0,.08,.12,.22,.23,.43,.35,.65,0,0,.02,0,.02-.02,.18-.26,.36-.52,.54-.78,.02-.03,.02-.05,0-.08-.18-.2-.36-.39-.54-.6Z"/>
            <path class="cls-15" d="M30.42,31.11c-.04-.13-.08-.16-.22-.16-.08,0-.15,0-.23,0,0-.03,.02-.04,.04-.05,.38-.29,.75-.58,1.13-.87,.03-.02,.06-.04,.1-.05,.48-.14,.95-.27,1.42-.41,.05-.02,.07,0,.07,.05,0,.26,0,.52,0,.77,0,.04-.01,.06-.04,.09-.15,.14-.31,.29-.46,.43-.03,.03-.06,.04-.1,.04-.13,0-.26,0-.4,0-.12,0-.17,.04-.2,.16-.13,0-.26,0-.39,0-.04-.11-.09-.16-.17-.16-.08,0-.13,.06-.16,.16-.13,0-.26,0-.4,0Z"/>
            <path class="cls-23" d="M30.82,31.11c.02-.1,.08-.15,.16-.16,.08,0,.14,.04,.17,.16-.01,.07-.04,.14-.12,.16-.11,.03-.19-.03-.21-.16Z"/>
            <path class="cls-12" d="M29.18,28.17s0,.03-.01,.04c-.12,.42-.24,.84-.36,1.26-.01,.05-.03,.06-.08,.04-.41-.12-.81-.25-1.22-.37-.03,0-.06-.03-.08-.05-.12-.14-.23-.28-.35-.41-.03-.04-.03-.06,0-.09,.27-.24,.55-.48,.82-.73,.04-.04,.07-.04,.11,0,.12,.08,.25,.15,.37,.22,.07,.04,.14,.06,.22,.06,.17,0,.34,0,.52,0,.02,0,.05-.02,.05,.03Z"/>
            <path class="cls-12" d="M30.9,29.79s-.02,.03-.03,.04c-.44,.34-.88,.68-1.31,1.02-.04,.03-.06,.02-.07-.02-.13-.33-.25-.66-.38-.99-.01-.04-.01-.06,.02-.08,.39-.34,.78-.69,1.17-1.03,.03-.02,.04-.04,.07,0,.17,.35,.35,.69,.53,1.03,0,0,0,.02,.01,.03Z"/>
            <path class="cls-8" d="M27.81,29.58c.31,.09,.62,.19,.93,.28,.03,0,.05,.03,.06,.06,.12,.32,.25,.65,.37,.97,.02,.06,0,.07-.05,.07-.52,0-1.03,0-1.55,0-.08,0-.06-.04-.05-.09,.09-.4,.18-.8,.27-1.19,0-.03,.01-.06,.02-.1Z"/>
            <path class="cls-16" d="M30.55,26.42c0,.29,0,.58,0,.86,0,.04-.01,.06-.05,.07-.37,.15-.74,.3-1.1,.45-.02,0-.04,.01-.06,.01-.22,0-.43,0-.64,0-.01-.02,0-.04,.02-.05,.21-.32,.41-.64,.62-.95,.02-.03,.03-.05,.07-.06,.38-.11,.76-.23,1.13-.34,0,0,.01,0,.02,0Z"/>
            <path class="cls-10" d="M29.71,28.03c.25-.1,.5-.2,.75-.31,.18-.08,.35-.11,.55-.08,.41,.06,.82,.11,1.22,.16,.05,0,.06,.02,.04,.07-.06,.16-.12,.33-.18,.49-.02,.05-.04,.05-.06,.02-.09-.12-.22-.12-.36-.12-.4,0-.8,0-1.19,0-.1,0-.19,.03-.26,.1-.08,.08-.09,.08-.17,0-.1-.09-.19-.18-.29-.27-.02-.02-.04-.03-.04-.06Z"/>
            <path class="cls-1" d="M32.56,29.26c-.45,.13-.88,.25-1.31,.38-.04,.01-.06,0-.07-.04-.16-.32-.33-.65-.49-.97-.03-.05,0-.06,.04-.06,.34,0,.67,0,1.01,0,.02,0,.05,0,.07,.02,.25,.22,.5,.44,.77,.66Z"/>
            <path class="cls-12" d="M26.48,30.95c-.2,0-.4,0-.61,0-.02,0-.05,.01-.06-.01,0-.01,.01-.03,.02-.05,.17-.25,.35-.5,.52-.76,.02-.03,.05-.05,.08-.06,.3-.08,.61-.16,.91-.24,.05-.01,.07,0,.06,.05-.08,.33-.16,.67-.23,1.01-.01,.05-.04,.06-.08,.06-.21,0-.41,0-.62,0Z"/>
            <path class="cls-16" d="M27.36,29.51c-.33,.09-.65,.17-.97,.26-.03,0-.05,0-.07-.02-.19-.21-.38-.42-.57-.63-.03-.03-.03-.05,0-.08,.11-.09,.21-.17,.32-.26,.03-.02,.05-.03,.09-.03,.18,.02,.36,.03,.55,.05,.03,0,.05,0,.07,.03,.19,.23,.38,.45,.58,.69Z"/>
            <path class="cls-10" d="M32.22,27.47c-.17-.02-.32-.04-.47-.06-.27-.03-.54-.07-.81-.1-.05,0-.07-.02-.07-.07,0-.25,0-.5,0-.75,0-.05,0-.07,.06-.05,.27,.09,.54,.17,.81,.26,.02,0,.04,.01,.06,.04,.13,.24,.27,.48,.42,.74Z"/>
            <path class="cls-1" d="M25.52,29.33c.18,.2,.36,.4,.54,.6,.02,.03,.03,.04,0,.08-.18,.26-.36,.52-.54,.78,0,0-.01,0-.02,.02-.12-.22-.23-.44-.35-.65-.02-.03-.02-.05,0-.08,.12-.24,.24-.48,.37-.74Z"/>
            <path class="cls-30" d="M29.23,29.22s.01-.09,.02-.13c.07-.25,.14-.51,.22-.76,0-.02,0-.03,.03-.05,.12,.11,.24,.23,.36,.34,.02,.02,.01,.03,0,.05-.21,.18-.41,.37-.62,.54h0Z"/>
            <path class="cls-30" d="M29.23,29.22s0,0,0,.01c0,0,0,0,0,0,0,0,0,0,.01,0,0,0,0,0,0,0Z"/>
          </g>
        </g>
      </g>
    </g>
  </g>
</svg>