<?xml version="1.0" encoding="UTF-8"?>
<svg id="iconos" xmlns="http://www.w3.org/2000/svg" viewBox="0 0 12.67 18.87">
  <defs>
    <style>
      .cls-1 {
        fill: #fff;
      }

      .cls-2 {
        fill: #363f49;
      }

      .cls-3 {
        fill: #804680;
      }
    </style>
  </defs>
  <path class="cls-3" d="M12.67,6.34c0,3.5-6.08,11-6.34,11-.17,0-6.34-7.51-6.34-11S2.84,0,6.34,0s6.34,2.84,6.34,6.34Z"/>
  <circle class="cls-1" cx="6.34" cy="6.34" r="4.94" transform="translate(-.59 12.02) rotate(-84.34)"/>
  <path class="cls-2" d="M6.92,18.32c0,.31-.25,.56-.56,.56s-.56-.25-.56-.56,.25-.56,.56-.56,.56,.25,.56,.56Z"/>
  <path d="M5.64,4.86h-.92c.05-.37,.18-.67,.4-.9,.31-.32,.69-.47,1.16-.47,.41,0,.76,.13,1.04,.39,.28,.26,.42,.58,.42,.94,0,.22-.06,.43-.18,.61s-.3,.34-.53,.45c.31,.09,.55,.25,.72,.48,.17,.23,.26,.5,.26,.8,0,.45-.17,.84-.5,1.15-.33,.31-.76,.47-1.28,.47-.49,0-.89-.15-1.2-.44-.31-.3-.48-.7-.51-1.21h.95c.04,.26,.13,.46,.27,.58s.32,.19,.53,.19,.41-.07,.56-.22c.15-.14,.22-.32,.22-.53,0-.23-.1-.42-.3-.58-.2-.16-.49-.24-.86-.24v-.82c.23-.02,.4-.05,.52-.11s.2-.13,.26-.22,.09-.19,.09-.3c0-.14-.05-.25-.14-.34s-.22-.14-.38-.14c-.14,0-.26,.04-.37,.12-.11,.08-.19,.19-.23,.33Z"/>
</svg>