<?xml version="1.0" encoding="UTF-8"?>
<svg id="iconos" xmlns="http://www.w3.org/2000/svg" viewBox="0 0 12.67 18.87">
  <defs>
    <style>
      .cls-1 {
        fill: #fff;
      }

      .cls-2 {
        fill: #363f49;
      }

      .cls-3 {
        fill: #804680;
      }
    </style>
  </defs>
  <path class="cls-3" d="M12.67,6.34c0,3.5-6.08,11-6.34,11-.17,0-6.34-7.51-6.34-11S2.84,0,6.34,0s6.34,2.84,6.34,6.34Z"/>
  <circle class="cls-1" cx="6.34" cy="6.34" r="4.94" transform="translate(-.59 12.02) rotate(-84.34)"/>
  <path class="cls-2" d="M6.92,18.32c0,.31-.25,.56-.56,.56s-.56-.25-.56-.56,.25-.56,.56-.56,.56,.25,.56,.56Z"/>
  <path d="M5.48,3.62h2.37v.89h-1.65l-.21,.92c.06-.02,.11-.03,.17-.04,.05,0,.11-.01,.16-.01,.46,0,.84,.16,1.14,.47,.3,.31,.46,.71,.46,1.2s-.17,.91-.5,1.25-.74,.51-1.22,.51c-.43,0-.8-.12-1.11-.37s-.51-.58-.61-1.01h1.01c.08,.16,.18,.28,.31,.36,.13,.08,.27,.12,.42,.12,.21,0,.39-.08,.54-.23s.22-.35,.22-.59-.07-.43-.21-.58c-.14-.15-.31-.23-.5-.23-.11,0-.21,.03-.31,.08s-.2,.13-.3,.24l-.78-.17,.61-2.81Z"/>
</svg>